EESchema Schematic File Version 4
EELAYER 30 0
EELAYER END
$Descr A4 11693 8268
encoding utf-8
Sheet 6 8
Title "VolCtrlDR-Controller"
Date "2020-01-27"
Rev "0.4"
Comp "T5! DIY Audio"
Comment1 ""
Comment2 ""
Comment3 ""
Comment4 ""
$EndDescr
$Comp
L Connector_Generic:Conn_02x10_Odd_Even J3
U 1 1 5DFA6FFD
P 1450 1450
F 0 "J3" H 1500 2067 50  0000 C CNN
F 1 "VolCtrlDR1" H 1500 1976 50  0000 C CNN
F 2 "Connector_PinHeader_2.54mm:PinHeader_2x10_P2.54mm_Vertical" H 1450 1450 50  0001 C CNN
F 3 "~" H 1450 1450 50  0001 C CNN
	1    1450 1450
	1    0    0    -1  
$EndComp
$Comp
L power:+12V #PWR0161
U 1 1 5DFA9333
P 1150 1050
F 0 "#PWR0161" H 1150 900 50  0001 C CNN
F 1 "+12V" V 1165 1178 50  0000 L CNN
F 2 "" H 1150 1050 50  0001 C CNN
F 3 "" H 1150 1050 50  0001 C CNN
	1    1150 1050
	0    -1   -1   0   
$EndComp
Wire Wire Line
	1150 1050 1200 1050
Wire Wire Line
	1200 1050 1200 1150
Wire Wire Line
	1200 1650 1250 1650
Connection ~ 1200 1050
Wire Wire Line
	1200 1050 1250 1050
Wire Wire Line
	1250 1550 1200 1550
Connection ~ 1200 1550
Wire Wire Line
	1200 1550 1200 1650
Wire Wire Line
	1200 1450 1250 1450
Connection ~ 1200 1450
Wire Wire Line
	1200 1450 1200 1550
Wire Wire Line
	1250 1350 1200 1350
Connection ~ 1200 1350
Wire Wire Line
	1200 1350 1200 1450
Wire Wire Line
	1200 1250 1250 1250
Connection ~ 1200 1250
Wire Wire Line
	1200 1250 1200 1350
Wire Wire Line
	1250 1150 1200 1150
Connection ~ 1200 1150
Wire Wire Line
	1200 1150 1200 1250
Wire Wire Line
	1750 1650 1900 1650
Wire Wire Line
	1900 1550 1750 1550
Wire Wire Line
	1900 1450 1750 1450
Wire Wire Line
	1900 1350 1750 1350
Wire Wire Line
	1900 1250 1750 1250
Wire Wire Line
	1900 1150 1750 1150
Wire Wire Line
	1900 1050 1750 1050
NoConn ~ 1250 1950
NoConn ~ 1750 1950
$Comp
L power:GND #PWR0162
U 1 1 5DFAC390
P 1150 1850
F 0 "#PWR0162" H 1150 1600 50  0001 C CNN
F 1 "GND" V 1155 1722 50  0000 R CNN
F 2 "" H 1150 1850 50  0001 C CNN
F 3 "" H 1150 1850 50  0001 C CNN
	1    1150 1850
	0    1    1    0   
$EndComp
Wire Wire Line
	1250 1850 1200 1850
Wire Wire Line
	1250 1750 1200 1750
Wire Wire Line
	1200 1750 1200 1850
Connection ~ 1200 1850
Wire Wire Line
	1200 1850 1150 1850
Wire Wire Line
	1750 1750 1900 1750
Wire Wire Line
	1900 1850 1750 1850
$Comp
L Connector_Generic:Conn_02x10_Odd_Even J4
U 1 1 5DFADFB2
P 1450 2800
F 0 "J4" H 1500 3417 50  0000 C CNN
F 1 "VolCtrlDR2" H 1500 3326 50  0000 C CNN
F 2 "Connector_PinHeader_2.54mm:PinHeader_2x10_P2.54mm_Vertical" H 1450 2800 50  0001 C CNN
F 3 "~" H 1450 2800 50  0001 C CNN
	1    1450 2800
	1    0    0    -1  
$EndComp
$Comp
L power:+12V #PWR0163
U 1 1 5DFADFBC
P 1150 2400
F 0 "#PWR0163" H 1150 2250 50  0001 C CNN
F 1 "+12V" V 1165 2528 50  0000 L CNN
F 2 "" H 1150 2400 50  0001 C CNN
F 3 "" H 1150 2400 50  0001 C CNN
	1    1150 2400
	0    -1   -1   0   
$EndComp
Wire Wire Line
	1150 2400 1200 2400
Wire Wire Line
	1200 2400 1200 2500
Wire Wire Line
	1200 3000 1250 3000
Connection ~ 1200 2400
Wire Wire Line
	1200 2400 1250 2400
Wire Wire Line
	1250 2900 1200 2900
Connection ~ 1200 2900
Wire Wire Line
	1200 2900 1200 3000
Wire Wire Line
	1200 2800 1250 2800
Connection ~ 1200 2800
Wire Wire Line
	1200 2800 1200 2900
Wire Wire Line
	1250 2700 1200 2700
Connection ~ 1200 2700
Wire Wire Line
	1200 2700 1200 2800
Wire Wire Line
	1200 2600 1250 2600
Connection ~ 1200 2600
Wire Wire Line
	1200 2600 1200 2700
Wire Wire Line
	1250 2500 1200 2500
Connection ~ 1200 2500
Wire Wire Line
	1200 2500 1200 2600
Wire Wire Line
	1750 3000 1900 3000
Wire Wire Line
	1900 2900 1750 2900
Wire Wire Line
	1900 2800 1750 2800
Wire Wire Line
	1900 2700 1750 2700
Wire Wire Line
	1900 2600 1750 2600
Wire Wire Line
	1900 2500 1750 2500
Wire Wire Line
	1900 2400 1750 2400
NoConn ~ 1250 3300
NoConn ~ 1750 3300
$Comp
L power:GND #PWR0164
U 1 1 5DFADFEA
P 1150 3200
F 0 "#PWR0164" H 1150 2950 50  0001 C CNN
F 1 "GND" V 1155 3072 50  0000 R CNN
F 2 "" H 1150 3200 50  0001 C CNN
F 3 "" H 1150 3200 50  0001 C CNN
	1    1150 3200
	0    1    1    0   
$EndComp
Wire Wire Line
	1250 3200 1200 3200
Wire Wire Line
	1250 3100 1200 3100
Wire Wire Line
	1200 3100 1200 3200
Connection ~ 1200 3200
Wire Wire Line
	1200 3200 1150 3200
Wire Wire Line
	1750 3100 1900 3100
Wire Wire Line
	1900 3200 1750 3200
$Comp
L Connector_Generic:Conn_02x10_Odd_Even J5
U 1 1 5DFB42C7
P 1450 4250
F 0 "J5" H 1500 4867 50  0000 C CNN
F 1 "VolCtrlDR3" H 1500 4776 50  0000 C CNN
F 2 "Connector_PinHeader_2.54mm:PinHeader_2x10_P2.54mm_Vertical" H 1450 4250 50  0001 C CNN
F 3 "~" H 1450 4250 50  0001 C CNN
	1    1450 4250
	1    0    0    -1  
$EndComp
$Comp
L power:+12V #PWR0165
U 1 1 5DFB42D1
P 1150 3850
F 0 "#PWR0165" H 1150 3700 50  0001 C CNN
F 1 "+12V" V 1165 3978 50  0000 L CNN
F 2 "" H 1150 3850 50  0001 C CNN
F 3 "" H 1150 3850 50  0001 C CNN
	1    1150 3850
	0    -1   -1   0   
$EndComp
Wire Wire Line
	1150 3850 1200 3850
Wire Wire Line
	1200 3850 1200 3950
Wire Wire Line
	1200 4450 1250 4450
Connection ~ 1200 3850
Wire Wire Line
	1200 3850 1250 3850
Wire Wire Line
	1250 4350 1200 4350
Connection ~ 1200 4350
Wire Wire Line
	1200 4350 1200 4450
Wire Wire Line
	1200 4250 1250 4250
Connection ~ 1200 4250
Wire Wire Line
	1200 4250 1200 4350
Wire Wire Line
	1250 4150 1200 4150
Connection ~ 1200 4150
Wire Wire Line
	1200 4150 1200 4250
Wire Wire Line
	1200 4050 1250 4050
Connection ~ 1200 4050
Wire Wire Line
	1200 4050 1200 4150
Wire Wire Line
	1250 3950 1200 3950
Connection ~ 1200 3950
Wire Wire Line
	1200 3950 1200 4050
Wire Wire Line
	1750 4450 1900 4450
Wire Wire Line
	1900 4350 1750 4350
Wire Wire Line
	1900 4250 1750 4250
Wire Wire Line
	1900 4150 1750 4150
Wire Wire Line
	1900 4050 1750 4050
Wire Wire Line
	1900 3950 1750 3950
Wire Wire Line
	1900 3850 1750 3850
NoConn ~ 1250 4750
NoConn ~ 1750 4750
$Comp
L power:GND #PWR0166
U 1 1 5DFB42FF
P 1150 4650
F 0 "#PWR0166" H 1150 4400 50  0001 C CNN
F 1 "GND" V 1155 4522 50  0000 R CNN
F 2 "" H 1150 4650 50  0001 C CNN
F 3 "" H 1150 4650 50  0001 C CNN
	1    1150 4650
	0    1    1    0   
$EndComp
Wire Wire Line
	1250 4650 1200 4650
Wire Wire Line
	1250 4550 1200 4550
Wire Wire Line
	1200 4550 1200 4650
Connection ~ 1200 4650
Wire Wire Line
	1200 4650 1150 4650
Wire Wire Line
	1750 4550 1900 4550
Wire Wire Line
	1900 4650 1750 4650
$Comp
L Connector_Generic:Conn_02x10_Odd_Even J6
U 1 1 5DFB4310
P 1450 5600
F 0 "J6" H 1500 6217 50  0000 C CNN
F 1 "VolCtrlDR4" H 1500 6126 50  0000 C CNN
F 2 "Connector_PinHeader_2.54mm:PinHeader_2x10_P2.54mm_Vertical" H 1450 5600 50  0001 C CNN
F 3 "~" H 1450 5600 50  0001 C CNN
	1    1450 5600
	1    0    0    -1  
$EndComp
$Comp
L power:+12V #PWR0167
U 1 1 5DFB431A
P 1150 5200
F 0 "#PWR0167" H 1150 5050 50  0001 C CNN
F 1 "+12V" V 1165 5328 50  0000 L CNN
F 2 "" H 1150 5200 50  0001 C CNN
F 3 "" H 1150 5200 50  0001 C CNN
	1    1150 5200
	0    -1   -1   0   
$EndComp
Wire Wire Line
	1150 5200 1200 5200
Wire Wire Line
	1200 5200 1200 5300
Wire Wire Line
	1200 5800 1250 5800
Connection ~ 1200 5200
Wire Wire Line
	1200 5200 1250 5200
Wire Wire Line
	1250 5700 1200 5700
Connection ~ 1200 5700
Wire Wire Line
	1200 5700 1200 5800
Wire Wire Line
	1200 5600 1250 5600
Connection ~ 1200 5600
Wire Wire Line
	1200 5600 1200 5700
Wire Wire Line
	1250 5500 1200 5500
Connection ~ 1200 5500
Wire Wire Line
	1200 5500 1200 5600
Wire Wire Line
	1200 5400 1250 5400
Connection ~ 1200 5400
Wire Wire Line
	1200 5400 1200 5500
Wire Wire Line
	1250 5300 1200 5300
Connection ~ 1200 5300
Wire Wire Line
	1200 5300 1200 5400
Wire Wire Line
	1750 5800 1900 5800
Wire Wire Line
	1900 5700 1750 5700
Wire Wire Line
	1900 5600 1750 5600
Wire Wire Line
	1900 5500 1750 5500
Wire Wire Line
	1900 5400 1750 5400
Wire Wire Line
	1900 5300 1750 5300
Wire Wire Line
	1900 5200 1750 5200
NoConn ~ 1250 6100
NoConn ~ 1750 6100
$Comp
L power:GND #PWR0168
U 1 1 5DFB4348
P 1150 6000
F 0 "#PWR0168" H 1150 5750 50  0001 C CNN
F 1 "GND" V 1155 5872 50  0000 R CNN
F 2 "" H 1150 6000 50  0001 C CNN
F 3 "" H 1150 6000 50  0001 C CNN
	1    1150 6000
	0    1    1    0   
$EndComp
Wire Wire Line
	1250 6000 1200 6000
Wire Wire Line
	1250 5900 1200 5900
Wire Wire Line
	1200 5900 1200 6000
Connection ~ 1200 6000
Wire Wire Line
	1200 6000 1150 6000
Wire Wire Line
	1750 5900 1900 5900
Wire Wire Line
	1900 6000 1750 6000
$Comp
L Connector_Generic:Conn_02x10_Odd_Even J7
U 1 1 5DFC47D7
P 1450 6950
F 0 "J7" H 1500 7567 50  0000 C CNN
F 1 "VolCtrlDR5" H 1500 7476 50  0000 C CNN
F 2 "Connector_PinHeader_2.54mm:PinHeader_2x10_P2.54mm_Vertical" H 1450 6950 50  0001 C CNN
F 3 "~" H 1450 6950 50  0001 C CNN
	1    1450 6950
	1    0    0    -1  
$EndComp
$Comp
L power:+12V #PWR0169
U 1 1 5DFC47E1
P 1150 6550
F 0 "#PWR0169" H 1150 6400 50  0001 C CNN
F 1 "+12V" V 1165 6678 50  0000 L CNN
F 2 "" H 1150 6550 50  0001 C CNN
F 3 "" H 1150 6550 50  0001 C CNN
	1    1150 6550
	0    -1   -1   0   
$EndComp
Wire Wire Line
	1150 6550 1200 6550
Wire Wire Line
	1200 6550 1200 6650
Wire Wire Line
	1200 7150 1250 7150
Connection ~ 1200 6550
Wire Wire Line
	1200 6550 1250 6550
Wire Wire Line
	1250 7050 1200 7050
Connection ~ 1200 7050
Wire Wire Line
	1200 7050 1200 7150
Wire Wire Line
	1200 6950 1250 6950
Connection ~ 1200 6950
Wire Wire Line
	1200 6950 1200 7050
Wire Wire Line
	1250 6850 1200 6850
Connection ~ 1200 6850
Wire Wire Line
	1200 6850 1200 6950
Wire Wire Line
	1200 6750 1250 6750
Connection ~ 1200 6750
Wire Wire Line
	1200 6750 1200 6850
Wire Wire Line
	1250 6650 1200 6650
Connection ~ 1200 6650
Wire Wire Line
	1200 6650 1200 6750
Wire Wire Line
	1750 7150 1900 7150
Wire Wire Line
	1900 7050 1750 7050
Wire Wire Line
	1900 6950 1750 6950
Wire Wire Line
	1900 6850 1750 6850
Wire Wire Line
	1900 6750 1750 6750
Wire Wire Line
	1900 6650 1750 6650
Wire Wire Line
	1900 6550 1750 6550
NoConn ~ 1250 7450
NoConn ~ 1750 7450
$Comp
L power:GND #PWR0170
U 1 1 5DFC480F
P 1150 7350
F 0 "#PWR0170" H 1150 7100 50  0001 C CNN
F 1 "GND" V 1155 7222 50  0000 R CNN
F 2 "" H 1150 7350 50  0001 C CNN
F 3 "" H 1150 7350 50  0001 C CNN
	1    1150 7350
	0    1    1    0   
$EndComp
Wire Wire Line
	1250 7350 1200 7350
Wire Wire Line
	1250 7250 1200 7250
Wire Wire Line
	1200 7250 1200 7350
Connection ~ 1200 7350
Wire Wire Line
	1200 7350 1150 7350
Wire Wire Line
	1750 7250 1900 7250
Wire Wire Line
	1900 7350 1750 7350
Wire Wire Line
	3750 1250 3550 1250
Wire Wire Line
	3550 1350 3750 1350
Wire Wire Line
	3750 1450 3550 1450
Wire Wire Line
	3550 1550 3750 1550
Wire Wire Line
	3750 1650 3550 1650
Wire Wire Line
	3550 1750 3750 1750
Wire Wire Line
	3750 1850 3550 1850
Wire Wire Line
	3550 1950 3750 1950
$Comp
L power:+12V #PWR0183
U 1 1 5E0EA5C3
P 5250 1000
F 0 "#PWR0183" H 5250 850 50  0001 C CNN
F 1 "+12V" V 5265 1128 50  0000 L CNN
F 2 "" H 5250 1000 50  0001 C CNN
F 3 "" H 5250 1000 50  0001 C CNN
	1    5250 1000
	1    0    0    -1  
$EndComp
$Comp
L power:GND #PWR0184
U 1 1 5E0EA5CD
P 5350 3000
F 0 "#PWR0184" H 5350 2750 50  0001 C CNN
F 1 "GND" V 5355 2872 50  0000 R CNN
F 2 "" H 5350 3000 50  0001 C CNN
F 3 "" H 5350 3000 50  0001 C CNN
	1    5350 3000
	1    0    0    -1  
$EndComp
Text GLabel 1900 1050 2    50   Input ~ 0
RY_32DB_1
Text GLabel 1900 1150 2    50   Input ~ 0
RY_16DB_1
Text GLabel 1900 1250 2    50   Input ~ 0
RY_8DB_1
Text GLabel 1900 1350 2    50   Input ~ 0
RY_4DB_1
Text GLabel 1900 1450 2    50   Input ~ 0
RY_2DB_1
Text GLabel 1900 1550 2    50   Input ~ 0
RY_1DB_1
Text GLabel 1900 1650 2    50   Input ~ 0
RY_MUTE_LR_1
Text GLabel 1900 2400 2    50   Input ~ 0
RY_32DB_2
Text GLabel 1900 2500 2    50   Input ~ 0
RY_16DB_2
Text GLabel 1900 2600 2    50   Input ~ 0
RY_8DB_2
Text GLabel 1900 2700 2    50   Input ~ 0
RY_4DB_2
Text GLabel 1900 2800 2    50   Input ~ 0
RY_2DB_2
Text GLabel 1900 3000 2    50   Input ~ 0
RY_MUTE_LR_2
Text GLabel 1900 2900 2    50   Input ~ 0
RY_1DB_2
Text GLabel 1900 3850 2    50   Input ~ 0
RY_32DB_3
Text GLabel 1900 3950 2    50   Input ~ 0
RY_16DB_3
Text GLabel 1900 4050 2    50   Input ~ 0
RY_8DB_3
Text GLabel 1900 4150 2    50   Input ~ 0
RY_4DB_3
Text GLabel 1900 4250 2    50   Input ~ 0
RY_2DB_3
Text GLabel 1900 4350 2    50   Input ~ 0
RY_1DB_3
Text GLabel 1900 4450 2    50   Input ~ 0
RY_MUTE_LR_3
Text GLabel 1900 5200 2    50   Input ~ 0
RY_32DB_4
Text GLabel 1900 5300 2    50   Input ~ 0
RY_16DB_4
Text GLabel 1900 5400 2    50   Input ~ 0
RY_8DB_4
Text GLabel 1900 5500 2    50   Input ~ 0
RY_4DB_4
Text GLabel 1900 5600 2    50   Input ~ 0
RY_2DB_4
Text GLabel 1900 5700 2    50   Input ~ 0
RY_1DB_4
Text GLabel 1900 5800 2    50   Input ~ 0
RY_MUTE_LR_4
Text GLabel 1900 6550 2    50   Input ~ 0
RY_32DB_5
Text GLabel 1900 6650 2    50   Input ~ 0
RY_16DB_5
Text GLabel 1900 6750 2    50   Input ~ 0
RY_8DB_5
Text GLabel 1900 6850 2    50   Input ~ 0
RY_4DB_5
Text GLabel 1900 6950 2    50   Input ~ 0
RY_2DB_5
Text GLabel 1900 7050 2    50   Input ~ 0
RY_1DB_5
Text GLabel 1900 7150 2    50   Input ~ 0
RY_MUTE_LR_5
Wire Wire Line
	3550 1150 3750 1150
Text GLabel 3550 1150 0    50   Input ~ 0
SDA_DAC_1
Text GLabel 3550 1250 0    50   Input ~ 0
SCL_DAC_1
Text GLabel 3550 1350 0    50   Input ~ 0
SDA_DAC_2
Text GLabel 3550 1450 0    50   Input ~ 0
SCL_DAC_2
Text GLabel 3550 1550 0    50   Input ~ 0
SDA_DAC_3
Text GLabel 3550 1650 0    50   Input ~ 0
SCL_DAC_3
Text GLabel 3550 1750 0    50   Input ~ 0
SDA_DAC_4
Text GLabel 3550 1850 0    50   Input ~ 0
SCL_DAC_4
Text GLabel 3550 1950 0    50   Input ~ 0
SDA_DAC_5
Wire Wire Line
	3750 2050 3550 2050
Text GLabel 3550 2050 0    50   Input ~ 0
SCL_DAC_5
Text GLabel 6100 2750 2    50   Input ~ 0
PG_PA5L
Text GLabel 6100 2650 2    50   Input ~ 0
RY_MUTE_PA5L
Text GLabel 6100 2350 2    50   Input ~ 0
PG_PA4L
Text GLabel 6100 2250 2    50   Input ~ 0
RY_MUTE_PA4L
Text GLabel 6100 1950 2    50   Input ~ 0
PG_PA3L
Text GLabel 6100 1850 2    50   Input ~ 0
RY_MUTE_PA3L
Text GLabel 6100 1550 2    50   Input ~ 0
PG_PA2L
Text GLabel 6100 1450 2    50   Input ~ 0
RY_MUTE_PA2L
Text GLabel 6100 1150 2    50   Input ~ 0
PG_PA1L
Text GLabel 6100 1050 2    50   Input ~ 0
RY_MUTE_PA1L
Text GLabel 6100 1250 2    50   Input ~ 0
RY_MUTE_PA1R
Text GLabel 6100 1350 2    50   Input ~ 0
PG_PA1R
Text GLabel 6100 1650 2    50   Input ~ 0
RY_MUTE_PA2R
Text GLabel 6100 1750 2    50   Input ~ 0
PG_PA2R
Text GLabel 6100 2050 2    50   Input ~ 0
RY_MUTE_PA3R
Text GLabel 6100 2150 2    50   Input ~ 0
PG_PA3R
Text GLabel 6100 2450 2    50   Input ~ 0
RY_MUTE_PA4R
Text GLabel 6100 2550 2    50   Input ~ 0
PG_PA4R
Text GLabel 6100 2850 2    50   Input ~ 0
RY_MUTE_PA5R
Text GLabel 6100 2950 2    50   Input ~ 0
PG_PA5R
$Comp
L power:GND #PWR0181
U 1 1 5E535AC8
P 4350 2350
F 0 "#PWR0181" H 4350 2100 50  0001 C CNN
F 1 "GND" V 4355 2222 50  0000 R CNN
F 2 "" H 4350 2350 50  0001 C CNN
F 3 "" H 4350 2350 50  0001 C CNN
	1    4350 2350
	1    0    0    -1  
$EndComp
Wire Wire Line
	4350 2350 4350 2150
Wire Wire Line
	4350 1950 4250 1950
Wire Wire Line
	4350 1950 4350 1750
Wire Wire Line
	4350 1750 4250 1750
Connection ~ 4350 1950
Wire Wire Line
	4350 1750 4350 1550
Wire Wire Line
	4350 1550 4250 1550
Connection ~ 4350 1750
Wire Wire Line
	4250 1350 4350 1350
Wire Wire Line
	4350 1350 4350 1550
Connection ~ 4350 1550
Wire Wire Line
	4250 1150 4350 1150
Wire Wire Line
	4350 1150 4350 1350
Connection ~ 4350 1350
$Comp
L power:+3V3 #PWR0182
U 1 1 5E583A3C
P 4500 1100
F 0 "#PWR0182" H 4500 950 50  0001 C CNN
F 1 "+3V3" H 4515 1273 50  0000 C CNN
F 2 "" H 4500 1100 50  0001 C CNN
F 3 "" H 4500 1100 50  0001 C CNN
	1    4500 1100
	1    0    0    -1  
$EndComp
Wire Wire Line
	4500 1250 4250 1250
Wire Wire Line
	4500 1100 4500 1250
Wire Wire Line
	4500 1250 4500 1450
Wire Wire Line
	4500 1450 4250 1450
Connection ~ 4500 1250
Wire Wire Line
	4250 1650 4500 1650
Wire Wire Line
	4500 1650 4500 1450
Connection ~ 4500 1450
Wire Wire Line
	4250 1850 4500 1850
Wire Wire Line
	4500 1850 4500 1650
Connection ~ 4500 1650
Wire Wire Line
	4250 2050 4500 2050
Wire Wire Line
	4500 2050 4500 1850
Connection ~ 4500 1850
$Comp
L Connector_Generic:Conn_02x20_Odd_Even J18
U 1 1 5E5E5459
P 5650 1950
F 0 "J18" H 5700 3067 50  0000 C CNN
F 1 "PAs" H 5700 2976 50  0000 C CNN
F 2 "Connector_PinHeader_2.54mm:PinHeader_2x20_P2.54mm_Vertical" H 5650 1950 50  0001 C CNN
F 3 "~" H 5650 1950 50  0001 C CNN
	1    5650 1950
	1    0    0    -1  
$EndComp
Wire Wire Line
	5450 1050 5250 1050
Wire Wire Line
	5250 1050 5250 1000
Wire Wire Line
	5450 1250 5250 1250
Wire Wire Line
	5250 1250 5250 1050
Connection ~ 5250 1050
Wire Wire Line
	5450 1450 5250 1450
Wire Wire Line
	5250 1450 5250 1250
Connection ~ 5250 1250
Wire Wire Line
	5250 1450 5250 1650
Wire Wire Line
	5250 1650 5450 1650
Connection ~ 5250 1450
Wire Wire Line
	5250 1650 5250 1850
Wire Wire Line
	5250 1850 5450 1850
Connection ~ 5250 1650
Wire Wire Line
	5250 1850 5250 2050
Wire Wire Line
	5250 2050 5450 2050
Connection ~ 5250 1850
Wire Wire Line
	5250 2050 5250 2250
Wire Wire Line
	5250 2250 5450 2250
Connection ~ 5250 2050
Wire Wire Line
	5250 2250 5250 2450
Wire Wire Line
	5250 2450 5450 2450
Connection ~ 5250 2250
Wire Wire Line
	5250 2450 5250 2650
Wire Wire Line
	5250 2650 5450 2650
Connection ~ 5250 2450
Wire Wire Line
	5250 2650 5250 2850
Wire Wire Line
	5250 2850 5450 2850
Connection ~ 5250 2650
Wire Wire Line
	5450 1150 5350 1150
Wire Wire Line
	5350 1150 5350 1350
Wire Wire Line
	5350 1350 5450 1350
Wire Wire Line
	5350 1350 5350 1550
Wire Wire Line
	5350 1550 5450 1550
Connection ~ 5350 1350
Wire Wire Line
	5350 1550 5350 1750
Wire Wire Line
	5350 1750 5450 1750
Connection ~ 5350 1550
Wire Wire Line
	5350 1750 5350 1950
Wire Wire Line
	5350 1950 5450 1950
Connection ~ 5350 1750
Wire Wire Line
	5350 1950 5350 2150
Wire Wire Line
	5350 2150 5450 2150
Connection ~ 5350 1950
Wire Wire Line
	5350 2150 5350 2350
Wire Wire Line
	5350 2350 5450 2350
Connection ~ 5350 2150
Wire Wire Line
	5350 2350 5350 2550
Wire Wire Line
	5350 2550 5450 2550
Connection ~ 5350 2350
Wire Wire Line
	5350 2550 5350 2750
Wire Wire Line
	5350 2750 5450 2750
Connection ~ 5350 2550
Wire Wire Line
	5350 2750 5350 2950
Wire Wire Line
	5350 2950 5450 2950
Connection ~ 5350 2750
Wire Wire Line
	5350 2950 5350 3000
Connection ~ 5350 2950
Wire Wire Line
	6100 2950 5950 2950
Wire Wire Line
	5950 2850 6100 2850
Wire Wire Line
	6100 2750 5950 2750
Wire Wire Line
	5950 2650 6100 2650
Wire Wire Line
	6100 2550 5950 2550
Wire Wire Line
	5950 2450 6100 2450
Wire Wire Line
	5950 2350 6100 2350
Wire Wire Line
	6100 2250 5950 2250
Wire Wire Line
	5950 2150 6100 2150
Wire Wire Line
	6100 2050 5950 2050
Wire Wire Line
	5950 1950 6100 1950
Wire Wire Line
	6100 1850 5950 1850
Wire Wire Line
	5950 1750 6100 1750
Wire Wire Line
	6100 1650 5950 1650
Wire Wire Line
	5950 1550 6100 1550
Wire Wire Line
	6100 1450 5950 1450
Wire Wire Line
	5950 1350 6100 1350
Wire Wire Line
	6100 1250 5950 1250
Wire Wire Line
	5950 1150 6100 1150
Wire Wire Line
	6100 1050 5950 1050
Text GLabel 3550 2150 0    50   Input ~ 0
SDA_I2C_6
Wire Wire Line
	3550 2150 3750 2150
Text GLabel 3550 2250 0    50   Input ~ 0
SCL_I2C_6
Wire Wire Line
	3550 2250 3750 2250
$Comp
L Connector_Generic:Conn_02x02_Counter_Clockwise J16
U 1 1 5E96235F
P 3950 4400
F 0 "J16" H 4000 4617 50  0000 C CNN
F 1 "I2C7" H 4000 4526 50  0000 C CNN
F 2 "Connector_PinHeader_2.54mm:PinHeader_2x02_P2.54mm_Vertical" H 3950 4400 50  0001 C CNN
F 3 "~" H 3950 4400 50  0001 C CNN
	1    3950 4400
	1    0    0    -1  
$EndComp
$Comp
L power:GND #PWR0187
U 1 1 5E962369
P 4350 4300
F 0 "#PWR0187" H 4350 4050 50  0001 C CNN
F 1 "GND" V 4355 4172 50  0000 R CNN
F 2 "" H 4350 4300 50  0001 C CNN
F 3 "" H 4350 4300 50  0001 C CNN
	1    4350 4300
	-1   0    0    1   
$EndComp
Wire Wire Line
	4250 4400 4350 4400
Wire Wire Line
	4350 4400 4350 4300
$Comp
L power:+3V3 #PWR0188
U 1 1 5E962375
P 4350 4600
F 0 "#PWR0188" H 4350 4450 50  0001 C CNN
F 1 "+3V3" H 4365 4773 50  0000 C CNN
F 2 "" H 4350 4600 50  0001 C CNN
F 3 "" H 4350 4600 50  0001 C CNN
	1    4350 4600
	-1   0    0    1   
$EndComp
Wire Wire Line
	4250 4500 4350 4500
Wire Wire Line
	4350 4500 4350 4600
Text GLabel 3550 4400 0    50   Input ~ 0
SDA_I2C_7
Wire Wire Line
	3550 4400 3750 4400
Text GLabel 3550 4500 0    50   Input ~ 0
SCL_I2C_7
Wire Wire Line
	3550 4500 3750 4500
$Comp
L Connector_Generic:Conn_02x02_Counter_Clockwise J17
U 1 1 5E97AE71
P 3950 5600
F 0 "J17" H 4000 5817 50  0000 C CNN
F 1 "I2C8" H 4000 5726 50  0000 C CNN
F 2 "Connector_PinHeader_2.54mm:PinHeader_2x02_P2.54mm_Vertical" H 3950 5600 50  0001 C CNN
F 3 "~" H 3950 5600 50  0001 C CNN
	1    3950 5600
	1    0    0    -1  
$EndComp
$Comp
L power:GND #PWR0189
U 1 1 5E97AE7B
P 4350 5500
F 0 "#PWR0189" H 4350 5250 50  0001 C CNN
F 1 "GND" V 4355 5372 50  0000 R CNN
F 2 "" H 4350 5500 50  0001 C CNN
F 3 "" H 4350 5500 50  0001 C CNN
	1    4350 5500
	-1   0    0    1   
$EndComp
Wire Wire Line
	4250 5600 4350 5600
Wire Wire Line
	4350 5600 4350 5500
$Comp
L power:+3V3 #PWR0190
U 1 1 5E97AE87
P 4350 5800
F 0 "#PWR0190" H 4350 5650 50  0001 C CNN
F 1 "+3V3" H 4365 5973 50  0000 C CNN
F 2 "" H 4350 5800 50  0001 C CNN
F 3 "" H 4350 5800 50  0001 C CNN
	1    4350 5800
	-1   0    0    1   
$EndComp
Wire Wire Line
	4250 5700 4350 5700
Wire Wire Line
	4350 5700 4350 5800
Text GLabel 3550 5600 0    50   Input ~ 0
SDA_I2C_8
Wire Wire Line
	3550 5600 3750 5600
Text GLabel 3550 5700 0    50   Input ~ 0
SCL_I2C_8
Wire Wire Line
	3550 5700 3750 5700
$Comp
L power:GND #PWR0191
U 1 1 5E99352B
P 5400 4400
F 0 "#PWR0191" H 5400 4150 50  0001 C CNN
F 1 "GND" V 5405 4272 50  0000 R CNN
F 2 "" H 5400 4400 50  0001 C CNN
F 3 "" H 5400 4400 50  0001 C CNN
	1    5400 4400
	1    0    0    -1  
$EndComp
Wire Wire Line
	5400 4400 5400 4250
Wire Wire Line
	5400 4050 5500 4050
Wire Wire Line
	5500 4150 5400 4150
Connection ~ 5400 4150
Wire Wire Line
	5400 4150 5400 4050
Wire Wire Line
	5400 4250 5500 4250
Connection ~ 5400 4250
Wire Wire Line
	5400 4250 5400 4150
Text GLabel 6150 4050 2    50   Input ~ 0
PG_SPARE1
Wire Wire Line
	6150 4050 6000 4050
Text GLabel 6150 4150 2    50   Input ~ 0
PG_SPARE2
Text GLabel 6150 4250 2    50   Input ~ 0
PG_SPARE3
Wire Wire Line
	6150 4150 6000 4150
Wire Wire Line
	6000 4250 6150 4250
$Comp
L power:GND #PWR0192
U 1 1 5EA32D17
P 5400 5800
F 0 "#PWR0192" H 5400 5550 50  0001 C CNN
F 1 "GND" V 5405 5672 50  0000 R CNN
F 2 "" H 5400 5800 50  0001 C CNN
F 3 "" H 5400 5800 50  0001 C CNN
	1    5400 5800
	1    0    0    -1  
$EndComp
Wire Wire Line
	5400 5800 5400 5650
Wire Wire Line
	5400 5450 5500 5450
Wire Wire Line
	5500 5550 5400 5550
Connection ~ 5400 5550
Wire Wire Line
	5400 5550 5400 5450
Wire Wire Line
	5400 5650 5500 5650
Connection ~ 5400 5650
Wire Wire Line
	5400 5650 5400 5550
Wire Wire Line
	5500 5150 5400 5150
Wire Wire Line
	5400 5150 5400 5250
Connection ~ 5400 5450
Wire Wire Line
	5400 5350 5500 5350
Connection ~ 5400 5350
Wire Wire Line
	5400 5350 5400 5450
Wire Wire Line
	5500 5250 5400 5250
Connection ~ 5400 5250
Wire Wire Line
	5400 5250 5400 5350
Text GLabel 6150 5150 2    50   Input ~ 0
GPIO_SPARE1
Text GLabel 6150 5250 2    50   Input ~ 0
GPIO_SPARE2
Text GLabel 6150 5350 2    50   Input ~ 0
GPIO_SPARE3
Text GLabel 6150 5450 2    50   Input ~ 0
GPIO_SPARE4
Text GLabel 6150 5550 2    50   Input ~ 0
GPIO_SPARE5
Text GLabel 6150 5650 2    50   Input ~ 0
GPIO_SPARE6
Wire Wire Line
	6000 5150 6150 5150
Wire Wire Line
	6150 5250 6000 5250
Wire Wire Line
	6000 5350 6150 5350
Wire Wire Line
	6150 5450 6000 5450
Wire Wire Line
	6000 5550 6150 5550
Wire Wire Line
	6150 5650 6000 5650
Text GLabel 1900 1750 2    50   Input ~ 0
PG_VC_11
Text GLabel 1900 1850 2    50   Input ~ 0
PG_VC_12
Text GLabel 1900 3100 2    50   Input ~ 0
PG_VC_21
Text GLabel 1900 3200 2    50   Input ~ 0
PG_VC_22
Text GLabel 1900 4550 2    50   Input ~ 0
PG_VC_31
Text GLabel 1900 4650 2    50   Input ~ 0
PG_VC_32
Text GLabel 1900 5900 2    50   Input ~ 0
PG_VC_41
Text GLabel 1900 6000 2    50   Input ~ 0
PG_VC_42
Text GLabel 1900 7250 2    50   Input ~ 0
PG_VC_51
Text GLabel 1900 7350 2    50   Input ~ 0
PG_VC_52
$Comp
L Connector_Generic:Conn_02x03_Odd_Even J19
U 1 1 5F4C9173
P 5700 4150
F 0 "J19" H 5750 4467 50  0000 C CNN
F 1 "PG Spare" H 5750 4376 50  0000 C CNN
F 2 "Connector_PinHeader_2.54mm:PinHeader_2x03_P2.54mm_Vertical" H 5700 4150 50  0001 C CNN
F 3 "~" H 5700 4150 50  0001 C CNN
	1    5700 4150
	1    0    0    -1  
$EndComp
$Comp
L Connector_Generic:Conn_02x06_Odd_Even J20
U 1 1 5F4E8B0B
P 5700 5350
F 0 "J20" H 5750 5767 50  0000 C CNN
F 1 "GPIO Spare" H 5750 5676 50  0000 C CNN
F 2 "Connector_PinHeader_2.54mm:PinHeader_2x06_P2.54mm_Vertical" H 5700 5350 50  0001 C CNN
F 3 "~" H 5700 5350 50  0001 C CNN
	1    5700 5350
	1    0    0    -1  
$EndComp
$Comp
L Connector_Generic:Conn_02x12_Odd_Even J14
U 1 1 5E56D78A
P 3950 1650
F 0 "J14" H 4000 2367 50  0000 C CNN
F 1 "Conn_02x12_Odd_Even" H 4000 2276 50  0000 C CNN
F 2 "Connector_PinHeader_2.54mm:PinHeader_2x12_P2.54mm_Vertical" H 3950 1650 50  0001 C CNN
F 3 "~" H 3950 1650 50  0001 C CNN
	1    3950 1650
	1    0    0    -1  
$EndComp
Wire Wire Line
	4250 2250 4500 2250
Wire Wire Line
	4500 2250 4500 2050
Connection ~ 4500 2050
Wire Wire Line
	4250 2150 4350 2150
Connection ~ 4350 2150
Wire Wire Line
	4350 2150 4350 1950
$EndSCHEMATC
