EESchema Schematic File Version 4
EELAYER 30 0
EELAYER END
$Descr A4 11693 8268
encoding utf-8
Sheet 8 8
Title "VolCtrlDR-Controller"
Date "2020-01-27"
Rev "0.4"
Comp "T5! DIY Audio"
Comment1 ""
Comment2 ""
Comment3 ""
Comment4 ""
$EndDescr
$Comp
L SamacSys_Parts:TCA9548APWR IC15
U 1 1 5EBF967A
P 5050 1950
F 0 "IC15" H 5650 2215 50  0000 C CNN
F 1 "TCA9548APWR" H 5650 2124 50  0000 C CNN
F 2 "SamacSys_Parts:SOP65P640X120-24N" H 6100 2050 50  0001 L CNN
F 3 "http://www.ti.com/lit/ds/symlink/tca9548a.pdf" H 6100 1950 50  0001 L CNN
F 4 "TEXAS INSTRUMENTS - TCA9548APWR - I2C SWITCH W/ RESET, 8-CH, TSSOP-24" H 6100 1850 50  0001 L CNN "Description"
F 5 "1.2" H 6100 1750 50  0001 L CNN "Height"
F 6 "595-TCA9548APWR" H 6100 1650 50  0001 L CNN "Mouser Part Number"
F 7 "https://www.mouser.com/Search/Refine.aspx?Keyword=595-TCA9548APWR" H 6100 1550 50  0001 L CNN "Mouser Price/Stock"
F 8 "Texas Instruments" H 6100 1450 50  0001 L CNN "Manufacturer_Name"
F 9 "TCA9548APWR" H 6100 1350 50  0001 L CNN "Manufacturer_Part_Number"
	1    5050 1950
	1    0    0    -1  
$EndComp
$Comp
L power:GND #PWR0193
U 1 1 5EBFA1BA
P 4950 3250
F 0 "#PWR0193" H 4950 3000 50  0001 C CNN
F 1 "GND" H 4955 3077 50  0000 C CNN
F 2 "" H 4950 3250 50  0001 C CNN
F 3 "" H 4950 3250 50  0001 C CNN
	1    4950 3250
	1    0    0    -1  
$EndComp
$Comp
L power:GND #PWR0194
U 1 1 5EBFA76C
P 6300 3250
F 0 "#PWR0194" H 6300 3000 50  0001 C CNN
F 1 "GND" H 6305 3077 50  0000 C CNN
F 2 "" H 6300 3250 50  0001 C CNN
F 3 "" H 6300 3250 50  0001 C CNN
	1    6300 3250
	1    0    0    -1  
$EndComp
Wire Wire Line
	6250 2250 6300 2250
Wire Wire Line
	6300 2250 6300 3150
Wire Wire Line
	5050 2050 4950 2050
Wire Wire Line
	5050 1950 4950 1950
Wire Wire Line
	4950 1950 4950 2050
Connection ~ 4950 2050
Wire Wire Line
	5050 3050 4950 3050
Connection ~ 4950 3050
Wire Wire Line
	4950 3050 4950 3250
Text GLabel 6450 2150 2    50   Input ~ 0
I2C4_SCL
Text GLabel 6450 2050 2    50   Input ~ 0
I2C4_SDA
Wire Wire Line
	6450 2050 6250 2050
Wire Wire Line
	6250 2150 6450 2150
$Comp
L power:+3V3 #PWR0195
U 1 1 5EBFCBB4
P 7000 1800
F 0 "#PWR0195" H 7000 1650 50  0001 C CNN
F 1 "+3V3" H 7015 1973 50  0000 C CNN
F 2 "" H 7000 1800 50  0001 C CNN
F 3 "" H 7000 1800 50  0001 C CNN
	1    7000 1800
	1    0    0    -1  
$EndComp
Wire Wire Line
	7000 1800 7000 1950
Wire Wire Line
	7000 1950 6250 1950
$Comp
L Device:C C56
U 1 1 5EBFDEDF
P 10050 2600
F 0 "C56" H 10165 2646 50  0000 L CNN
F 1 "100n" H 10165 2555 50  0000 L CNN
F 2 "Capacitor_SMD:C_0805_2012Metric" H 10088 2450 50  0001 C CNN
F 3 "~" H 10050 2600 50  0001 C CNN
	1    10050 2600
	1    0    0    -1  
$EndComp
Wire Wire Line
	6300 3150 10050 3150
Wire Wire Line
	10050 3150 10050 2750
Connection ~ 6300 3150
Wire Wire Line
	6300 3150 6300 3250
Text GLabel 9350 2350 2    50   Input ~ 0
SCL_I2C_8
Text GLabel 9350 2450 2    50   Input ~ 0
SDA_I2C_8
Text GLabel 9350 2550 2    50   Input ~ 0
SCL_I2C_7
Text GLabel 9350 2650 2    50   Input ~ 0
SDA_I2C_7
Text GLabel 9350 2750 2    50   Input ~ 0
SCL_I2C_6
Text GLabel 9350 2850 2    50   Input ~ 0
SDA_I2C_6
Text GLabel 9350 3050 2    50   Input ~ 0
SDA_DAC_5
Text GLabel 9350 2950 2    50   Input ~ 0
SCL_DAC_5
Text GLabel 2100 2350 0    50   Input ~ 0
SCL_DAC_1
Text GLabel 2100 2250 0    50   Input ~ 0
SDA_DAC_1
Text GLabel 2100 2550 0    50   Input ~ 0
SCL_DAC_2
Text GLabel 2100 2450 0    50   Input ~ 0
SDA_DAC_2
Text GLabel 2100 2750 0    50   Input ~ 0
SCL_DAC_3
Text GLabel 2100 2650 0    50   Input ~ 0
SDA_DAC_3
Text GLabel 2100 2950 0    50   Input ~ 0
SCL_DAC_4
Text GLabel 2100 2850 0    50   Input ~ 0
SDA_DAC_4
Wire Wire Line
	2100 2250 2250 2250
Wire Wire Line
	5050 2350 2550 2350
Wire Wire Line
	2100 2450 2850 2450
Wire Wire Line
	5050 2550 3150 2550
Wire Wire Line
	2100 2650 3450 2650
Wire Wire Line
	5050 2750 3750 2750
Wire Wire Line
	2100 2850 4050 2850
Wire Wire Line
	5050 2950 4350 2950
Wire Wire Line
	6250 3050 7000 3050
Wire Wire Line
	9350 2950 7300 2950
Wire Wire Line
	6250 2850 7600 2850
Wire Wire Line
	9350 2750 7900 2750
Wire Wire Line
	9350 2550 8500 2550
Wire Wire Line
	6250 2450 8800 2450
Wire Wire Line
	9350 2350 9100 2350
Wire Wire Line
	4950 2050 4950 3050
$Comp
L Device:R R30
U 1 1 5EC7E60D
P 4650 1950
F 0 "R30" H 4720 1996 50  0000 L CNN
F 1 "10k" H 4720 1905 50  0000 L CNN
F 2 "Resistor_SMD:R_0805_2012Metric" V 4580 1950 50  0001 C CNN
F 3 "~" H 4650 1950 50  0001 C CNN
	1    4650 1950
	1    0    0    -1  
$EndComp
Wire Wire Line
	5050 2150 4650 2150
Wire Wire Line
	4650 2150 4650 2100
$Comp
L power:+3V3 #PWR0196
U 1 1 5EC7F7F4
P 4650 1700
F 0 "#PWR0196" H 4650 1550 50  0001 C CNN
F 1 "+3V3" H 4665 1873 50  0000 C CNN
F 2 "" H 4650 1700 50  0001 C CNN
F 3 "" H 4650 1700 50  0001 C CNN
	1    4650 1700
	1    0    0    -1  
$EndComp
Wire Wire Line
	4650 1700 4650 1750
Wire Wire Line
	7000 1950 7300 1950
Wire Wire Line
	10050 1950 10050 2450
Connection ~ 7000 1950
$Comp
L Device:R R43
U 1 1 5E37ECE4
P 7000 2150
F 0 "R43" H 7070 2196 50  0000 L CNN
F 1 "2k2" H 7070 2105 50  0000 L CNN
F 2 "Resistor_SMD:R_0805_2012Metric" V 6930 2150 50  0001 C CNN
F 3 "~" H 7000 2150 50  0001 C CNN
	1    7000 2150
	1    0    0    -1  
$EndComp
$Comp
L Device:R R44
U 1 1 5E37F417
P 7300 2150
F 0 "R44" H 7370 2196 50  0000 L CNN
F 1 "2k2" H 7370 2105 50  0000 L CNN
F 2 "Resistor_SMD:R_0805_2012Metric" V 7230 2150 50  0001 C CNN
F 3 "~" H 7300 2150 50  0001 C CNN
	1    7300 2150
	1    0    0    -1  
$EndComp
$Comp
L Device:R R45
U 1 1 5E37F62F
P 7600 2150
F 0 "R45" H 7670 2196 50  0000 L CNN
F 1 "2k2" H 7670 2105 50  0000 L CNN
F 2 "Resistor_SMD:R_0805_2012Metric" V 7530 2150 50  0001 C CNN
F 3 "~" H 7600 2150 50  0001 C CNN
	1    7600 2150
	1    0    0    -1  
$EndComp
$Comp
L Device:R R46
U 1 1 5E37F948
P 7900 2150
F 0 "R46" H 7970 2196 50  0000 L CNN
F 1 "2k2" H 7970 2105 50  0000 L CNN
F 2 "Resistor_SMD:R_0805_2012Metric" V 7830 2150 50  0001 C CNN
F 3 "~" H 7900 2150 50  0001 C CNN
	1    7900 2150
	1    0    0    -1  
$EndComp
$Comp
L Device:R R47
U 1 1 5E37FBD5
P 8200 2150
F 0 "R47" H 8270 2196 50  0000 L CNN
F 1 "2k2" H 8270 2105 50  0000 L CNN
F 2 "Resistor_SMD:R_0805_2012Metric" V 8130 2150 50  0001 C CNN
F 3 "~" H 8200 2150 50  0001 C CNN
	1    8200 2150
	1    0    0    -1  
$EndComp
$Comp
L Device:R R48
U 1 1 5E37FEC2
P 8500 2150
F 0 "R48" H 8570 2196 50  0000 L CNN
F 1 "2k2" H 8570 2105 50  0000 L CNN
F 2 "Resistor_SMD:R_0805_2012Metric" V 8430 2150 50  0001 C CNN
F 3 "~" H 8500 2150 50  0001 C CNN
	1    8500 2150
	1    0    0    -1  
$EndComp
$Comp
L Device:R R49
U 1 1 5E380464
P 8800 2150
F 0 "R49" H 8870 2196 50  0000 L CNN
F 1 "2k2" H 8870 2105 50  0000 L CNN
F 2 "Resistor_SMD:R_0805_2012Metric" V 8730 2150 50  0001 C CNN
F 3 "~" H 8800 2150 50  0001 C CNN
	1    8800 2150
	1    0    0    -1  
$EndComp
$Comp
L Device:R R50
U 1 1 5E380758
P 9100 2150
F 0 "R50" H 9170 2196 50  0000 L CNN
F 1 "2k2" H 9170 2105 50  0000 L CNN
F 2 "Resistor_SMD:R_0805_2012Metric" V 9030 2150 50  0001 C CNN
F 3 "~" H 9100 2150 50  0001 C CNN
	1    9100 2150
	1    0    0    -1  
$EndComp
$Comp
L Device:R R35
U 1 1 5E382DBF
P 2250 2000
F 0 "R35" H 2320 2046 50  0000 L CNN
F 1 "2k2" H 2320 1955 50  0000 L CNN
F 2 "Resistor_SMD:R_0805_2012Metric" V 2180 2000 50  0001 C CNN
F 3 "~" H 2250 2000 50  0001 C CNN
	1    2250 2000
	1    0    0    -1  
$EndComp
$Comp
L Device:R R36
U 1 1 5E382DC9
P 2550 2000
F 0 "R36" H 2620 2046 50  0000 L CNN
F 1 "2k2" H 2620 1955 50  0000 L CNN
F 2 "Resistor_SMD:R_0805_2012Metric" V 2480 2000 50  0001 C CNN
F 3 "~" H 2550 2000 50  0001 C CNN
	1    2550 2000
	1    0    0    -1  
$EndComp
$Comp
L Device:R R37
U 1 1 5E382DD3
P 2850 2000
F 0 "R37" H 2920 2046 50  0000 L CNN
F 1 "2k2" H 2920 1955 50  0000 L CNN
F 2 "Resistor_SMD:R_0805_2012Metric" V 2780 2000 50  0001 C CNN
F 3 "~" H 2850 2000 50  0001 C CNN
	1    2850 2000
	1    0    0    -1  
$EndComp
$Comp
L Device:R R38
U 1 1 5E382DDD
P 3150 2000
F 0 "R38" H 3220 2046 50  0000 L CNN
F 1 "2k2" H 3220 1955 50  0000 L CNN
F 2 "Resistor_SMD:R_0805_2012Metric" V 3080 2000 50  0001 C CNN
F 3 "~" H 3150 2000 50  0001 C CNN
	1    3150 2000
	1    0    0    -1  
$EndComp
$Comp
L Device:R R39
U 1 1 5E382DE7
P 3450 2000
F 0 "R39" H 3520 2046 50  0000 L CNN
F 1 "2k2" H 3520 1955 50  0000 L CNN
F 2 "Resistor_SMD:R_0805_2012Metric" V 3380 2000 50  0001 C CNN
F 3 "~" H 3450 2000 50  0001 C CNN
	1    3450 2000
	1    0    0    -1  
$EndComp
$Comp
L Device:R R40
U 1 1 5E382DF1
P 3750 2000
F 0 "R40" H 3820 2046 50  0000 L CNN
F 1 "2k2" H 3820 1955 50  0000 L CNN
F 2 "Resistor_SMD:R_0805_2012Metric" V 3680 2000 50  0001 C CNN
F 3 "~" H 3750 2000 50  0001 C CNN
	1    3750 2000
	1    0    0    -1  
$EndComp
$Comp
L Device:R R41
U 1 1 5E382DFB
P 4050 2000
F 0 "R41" H 4120 2046 50  0000 L CNN
F 1 "2k2" H 4120 1955 50  0000 L CNN
F 2 "Resistor_SMD:R_0805_2012Metric" V 3980 2000 50  0001 C CNN
F 3 "~" H 4050 2000 50  0001 C CNN
	1    4050 2000
	1    0    0    -1  
$EndComp
$Comp
L Device:R R42
U 1 1 5E382E05
P 4350 2000
F 0 "R42" H 4420 2046 50  0000 L CNN
F 1 "2k2" H 4420 1955 50  0000 L CNN
F 2 "Resistor_SMD:R_0805_2012Metric" V 4280 2000 50  0001 C CNN
F 3 "~" H 4350 2000 50  0001 C CNN
	1    4350 2000
	1    0    0    -1  
$EndComp
Wire Wire Line
	2250 2150 2250 2250
Connection ~ 2250 2250
Wire Wire Line
	2250 2250 5050 2250
Wire Wire Line
	2550 2150 2550 2350
Connection ~ 2550 2350
Wire Wire Line
	2550 2350 2100 2350
Wire Wire Line
	2850 2450 2850 2150
Connection ~ 2850 2450
Wire Wire Line
	2850 2450 5050 2450
Wire Wire Line
	3150 2150 3150 2550
Connection ~ 3150 2550
Wire Wire Line
	3150 2550 2100 2550
Wire Wire Line
	3450 2150 3450 2650
Connection ~ 3450 2650
Wire Wire Line
	3450 2650 5050 2650
Wire Wire Line
	3750 2150 3750 2750
Connection ~ 3750 2750
Wire Wire Line
	3750 2750 2100 2750
Wire Wire Line
	4050 2150 4050 2850
Connection ~ 4050 2850
Wire Wire Line
	4050 2850 5050 2850
Wire Wire Line
	4350 2150 4350 2950
Connection ~ 4350 2950
Wire Wire Line
	4350 2950 2100 2950
Wire Wire Line
	4650 1750 4350 1750
Wire Wire Line
	2250 1750 2250 1850
Connection ~ 4650 1750
Wire Wire Line
	4650 1750 4650 1800
Wire Wire Line
	2550 1850 2550 1750
Connection ~ 2550 1750
Wire Wire Line
	2550 1750 2250 1750
Wire Wire Line
	2850 1750 2850 1850
Connection ~ 2850 1750
Wire Wire Line
	2850 1750 2550 1750
Wire Wire Line
	3150 1850 3150 1750
Connection ~ 3150 1750
Wire Wire Line
	3150 1750 2850 1750
Wire Wire Line
	3450 1750 3450 1850
Connection ~ 3450 1750
Wire Wire Line
	3450 1750 3150 1750
Wire Wire Line
	3750 1850 3750 1750
Connection ~ 3750 1750
Wire Wire Line
	3750 1750 3450 1750
Wire Wire Line
	4050 1750 4050 1850
Connection ~ 4050 1750
Wire Wire Line
	4050 1750 3750 1750
Wire Wire Line
	4350 1850 4350 1750
Connection ~ 4350 1750
Wire Wire Line
	4350 1750 4050 1750
Wire Wire Line
	7000 2000 7000 1950
Wire Wire Line
	7300 1950 7300 2000
Connection ~ 7300 1950
Wire Wire Line
	7300 1950 7600 1950
Wire Wire Line
	7600 2000 7600 1950
Connection ~ 7600 1950
Wire Wire Line
	7600 1950 7900 1950
Wire Wire Line
	7900 1950 7900 2000
Connection ~ 7900 1950
Wire Wire Line
	7900 1950 8200 1950
Wire Wire Line
	8200 2000 8200 1950
Connection ~ 8200 1950
Wire Wire Line
	8200 1950 8500 1950
Wire Wire Line
	8500 1950 8500 2000
Connection ~ 8500 1950
Wire Wire Line
	8500 1950 8800 1950
Wire Wire Line
	8800 2000 8800 1950
Connection ~ 8800 1950
Wire Wire Line
	8800 1950 9100 1950
Wire Wire Line
	9100 1950 9100 2000
Connection ~ 9100 1950
Wire Wire Line
	9100 1950 10050 1950
Wire Wire Line
	9100 2300 9100 2350
Connection ~ 9100 2350
Wire Wire Line
	9100 2350 6250 2350
Wire Wire Line
	8800 2300 8800 2450
Connection ~ 8800 2450
Wire Wire Line
	8800 2450 9350 2450
Wire Wire Line
	8500 2300 8500 2550
Connection ~ 8500 2550
Wire Wire Line
	8500 2550 6250 2550
Wire Wire Line
	8200 2300 8200 2650
Wire Wire Line
	6250 2650 8200 2650
Connection ~ 8200 2650
Wire Wire Line
	8200 2650 9350 2650
Wire Wire Line
	7900 2300 7900 2750
Connection ~ 7900 2750
Wire Wire Line
	7900 2750 6250 2750
Wire Wire Line
	7600 2300 7600 2850
Connection ~ 7600 2850
Wire Wire Line
	7600 2850 9350 2850
Wire Wire Line
	7300 2300 7300 2950
Connection ~ 7300 2950
Wire Wire Line
	7300 2950 6250 2950
Wire Wire Line
	7000 2300 7000 3050
Connection ~ 7000 3050
Wire Wire Line
	7000 3050 9350 3050
$EndSCHEMATC
