EESchema Schematic File Version 4
EELAYER 30 0
EELAYER END
$Descr A4 11693 8268
encoding utf-8
Sheet 7 8
Title "VolCtrlDR-Controller"
Date "2020-01-27"
Rev "0.4"
Comp "T5! DIY Audio"
Comment1 ""
Comment2 ""
Comment3 ""
Comment4 ""
$EndDescr
$Comp
L SamacSys_Parts:MCP23017T-E_SS IC10
U 1 1 5E598FEC
P 2600 1600
F 0 "IC10" H 3200 1865 50  0000 C CNN
F 1 "MCP23017T-E_SS 000" H 3200 1774 50  0000 C CNN
F 2 "SamacSys_Parts:SOP65P780X200-28N" H 3650 1700 50  0001 L CNN
F 3 "https://componentsearchengine.com/Datasheets/1/MCP23017T-E_SS.pdf" H 3650 1600 50  0001 L CNN
F 4 "16-Bit I/O Expander with Serial Interface" H 3650 1500 50  0001 L CNN "Description"
F 5 "2" H 3650 1400 50  0001 L CNN "Height"
F 6 "579-MCP23017T-E/SS" H 3650 1300 50  0001 L CNN "Mouser Part Number"
F 7 "https://www.mouser.com/Search/Refine.aspx?Keyword=579-MCP23017T-E%2FSS" H 3650 1200 50  0001 L CNN "Mouser Price/Stock"
F 8 "Microchip" H 3650 1100 50  0001 L CNN "Manufacturer_Name"
F 9 "MCP23017T-E/SS" H 3650 1000 50  0001 L CNN "Manufacturer_Part_Number"
	1    2600 1600
	1    0    0    -1  
$EndComp
Text GLabel 2500 2700 0    50   Input ~ 0
I2C1_SCL
Text GLabel 2500 2800 0    50   Input ~ 0
I2C1_SDA
Wire Wire Line
	2500 2800 2600 2800
Wire Wire Line
	2600 2700 2500 2700
NoConn ~ 2600 2900
$Comp
L power:+3V3 #PWR0201
U 1 1 5E59AA6D
P 2500 2400
F 0 "#PWR0201" H 2500 2250 50  0001 C CNN
F 1 "+3V3" V 2515 2528 50  0000 L CNN
F 2 "" H 2500 2400 50  0001 C CNN
F 3 "" H 2500 2400 50  0001 C CNN
	1    2500 2400
	0    -1   -1   0   
$EndComp
$Comp
L power:GND #PWR0202
U 1 1 5E59B01A
P 2500 2500
F 0 "#PWR0202" H 2500 2250 50  0001 C CNN
F 1 "GND" V 2505 2372 50  0000 R CNN
F 2 "" H 2500 2500 50  0001 C CNN
F 3 "" H 2500 2500 50  0001 C CNN
	1    2500 2500
	0    1    1    0   
$EndComp
Wire Wire Line
	2500 2500 2600 2500
Wire Wire Line
	2600 2400 2500 2400
NoConn ~ 2600 2600
$Comp
L power:GND #PWR0203
U 1 1 5E59B3DC
P 3900 3000
F 0 "#PWR0203" H 3900 2750 50  0001 C CNN
F 1 "GND" H 3905 2827 50  0000 C CNN
F 2 "" H 3900 3000 50  0001 C CNN
F 3 "" H 3900 3000 50  0001 C CNN
	1    3900 3000
	1    0    0    -1  
$EndComp
Wire Wire Line
	3900 3000 3900 2900
Wire Wire Line
	3900 2700 3800 2700
Wire Wire Line
	3800 2800 3900 2800
Connection ~ 3900 2800
Wire Wire Line
	3900 2800 3900 2700
Wire Wire Line
	3900 2900 3800 2900
Connection ~ 3900 2900
Wire Wire Line
	3900 2900 3900 2800
$Comp
L SamacSys_Parts:MCP23017T-E_SS IC11
U 1 1 5E59CBC0
P 2600 4300
F 0 "IC11" H 3200 4565 50  0000 C CNN
F 1 "MCP23017T-E_SS 001" H 3200 4474 50  0000 C CNN
F 2 "SamacSys_Parts:SOP65P780X200-28N" H 3650 4400 50  0001 L CNN
F 3 "https://componentsearchengine.com/Datasheets/1/MCP23017T-E_SS.pdf" H 3650 4300 50  0001 L CNN
F 4 "16-Bit I/O Expander with Serial Interface" H 3650 4200 50  0001 L CNN "Description"
F 5 "2" H 3650 4100 50  0001 L CNN "Height"
F 6 "579-MCP23017T-E/SS" H 3650 4000 50  0001 L CNN "Mouser Part Number"
F 7 "https://www.mouser.com/Search/Refine.aspx?Keyword=579-MCP23017T-E%2FSS" H 3650 3900 50  0001 L CNN "Mouser Price/Stock"
F 8 "Microchip" H 3650 3800 50  0001 L CNN "Manufacturer_Name"
F 9 "MCP23017T-E/SS" H 3650 3700 50  0001 L CNN "Manufacturer_Part_Number"
	1    2600 4300
	1    0    0    -1  
$EndComp
Text GLabel 2500 5400 0    50   Input ~ 0
I2C1_SCL
Text GLabel 2500 5500 0    50   Input ~ 0
I2C1_SDA
Wire Wire Line
	2500 5500 2600 5500
Wire Wire Line
	2600 5400 2500 5400
NoConn ~ 2600 5600
$Comp
L power:+3V3 #PWR0204
U 1 1 5E59CBCF
P 2500 5100
F 0 "#PWR0204" H 2500 4950 50  0001 C CNN
F 1 "+3V3" V 2515 5228 50  0000 L CNN
F 2 "" H 2500 5100 50  0001 C CNN
F 3 "" H 2500 5100 50  0001 C CNN
	1    2500 5100
	0    -1   -1   0   
$EndComp
$Comp
L power:GND #PWR0205
U 1 1 5E59CBD9
P 2500 5200
F 0 "#PWR0205" H 2500 4950 50  0001 C CNN
F 1 "GND" V 2505 5072 50  0000 R CNN
F 2 "" H 2500 5200 50  0001 C CNN
F 3 "" H 2500 5200 50  0001 C CNN
	1    2500 5200
	0    1    1    0   
$EndComp
Wire Wire Line
	2500 5200 2600 5200
Wire Wire Line
	2600 5100 2500 5100
NoConn ~ 2600 5300
$Comp
L power:GND #PWR0206
U 1 1 5E59CBE6
P 3900 5700
F 0 "#PWR0206" H 3900 5450 50  0001 C CNN
F 1 "GND" H 3905 5527 50  0000 C CNN
F 2 "" H 3900 5700 50  0001 C CNN
F 3 "" H 3900 5700 50  0001 C CNN
	1    3900 5700
	1    0    0    -1  
$EndComp
Wire Wire Line
	3900 5400 3800 5400
Wire Wire Line
	3800 5500 3900 5500
Connection ~ 3900 5500
Wire Wire Line
	3900 5500 3900 5400
$Comp
L SamacSys_Parts:MCP23017T-E_SS IC12
U 1 1 5E5A0AD2
P 5700 1550
F 0 "IC12" H 6300 1815 50  0000 C CNN
F 1 "MCP23017T-E_SS 010" H 6300 1724 50  0000 C CNN
F 2 "SamacSys_Parts:SOP65P780X200-28N" H 6750 1650 50  0001 L CNN
F 3 "https://componentsearchengine.com/Datasheets/1/MCP23017T-E_SS.pdf" H 6750 1550 50  0001 L CNN
F 4 "16-Bit I/O Expander with Serial Interface" H 6750 1450 50  0001 L CNN "Description"
F 5 "2" H 6750 1350 50  0001 L CNN "Height"
F 6 "579-MCP23017T-E/SS" H 6750 1250 50  0001 L CNN "Mouser Part Number"
F 7 "https://www.mouser.com/Search/Refine.aspx?Keyword=579-MCP23017T-E%2FSS" H 6750 1150 50  0001 L CNN "Mouser Price/Stock"
F 8 "Microchip" H 6750 1050 50  0001 L CNN "Manufacturer_Name"
F 9 "MCP23017T-E/SS" H 6750 950 50  0001 L CNN "Manufacturer_Part_Number"
	1    5700 1550
	1    0    0    -1  
$EndComp
Text GLabel 5600 2650 0    50   Input ~ 0
I2C1_SCL
Text GLabel 5600 2750 0    50   Input ~ 0
I2C1_SDA
Wire Wire Line
	5600 2750 5700 2750
Wire Wire Line
	5700 2650 5600 2650
NoConn ~ 5700 2850
$Comp
L power:+3V3 #PWR0207
U 1 1 5E5A0AE1
P 5600 2350
F 0 "#PWR0207" H 5600 2200 50  0001 C CNN
F 1 "+3V3" V 5615 2478 50  0000 L CNN
F 2 "" H 5600 2350 50  0001 C CNN
F 3 "" H 5600 2350 50  0001 C CNN
	1    5600 2350
	0    -1   -1   0   
$EndComp
$Comp
L power:GND #PWR0208
U 1 1 5E5A0AEB
P 5600 2450
F 0 "#PWR0208" H 5600 2200 50  0001 C CNN
F 1 "GND" V 5605 2322 50  0000 R CNN
F 2 "" H 5600 2450 50  0001 C CNN
F 3 "" H 5600 2450 50  0001 C CNN
	1    5600 2450
	0    1    1    0   
$EndComp
Wire Wire Line
	5600 2450 5700 2450
Wire Wire Line
	5700 2350 5600 2350
NoConn ~ 5700 2550
$Comp
L power:GND #PWR0209
U 1 1 5E5A0AF8
P 7000 2950
F 0 "#PWR0209" H 7000 2700 50  0001 C CNN
F 1 "GND" H 7005 2777 50  0000 C CNN
F 2 "" H 7000 2950 50  0001 C CNN
F 3 "" H 7000 2950 50  0001 C CNN
	1    7000 2950
	1    0    0    -1  
$EndComp
Wire Wire Line
	7000 2950 7000 2850
Wire Wire Line
	7000 2650 6900 2650
Wire Wire Line
	7000 2850 6900 2850
Connection ~ 7000 2850
$Comp
L SamacSys_Parts:MCP23017T-E_SS IC13
U 1 1 5E5A0B10
P 5700 4250
F 0 "IC13" H 6300 4515 50  0000 C CNN
F 1 "MCP23017T-E_SS 011" H 6300 4424 50  0000 C CNN
F 2 "SamacSys_Parts:SOP65P780X200-28N" H 6750 4350 50  0001 L CNN
F 3 "https://componentsearchengine.com/Datasheets/1/MCP23017T-E_SS.pdf" H 6750 4250 50  0001 L CNN
F 4 "16-Bit I/O Expander with Serial Interface" H 6750 4150 50  0001 L CNN "Description"
F 5 "2" H 6750 4050 50  0001 L CNN "Height"
F 6 "579-MCP23017T-E/SS" H 6750 3950 50  0001 L CNN "Mouser Part Number"
F 7 "https://www.mouser.com/Search/Refine.aspx?Keyword=579-MCP23017T-E%2FSS" H 6750 3850 50  0001 L CNN "Mouser Price/Stock"
F 8 "Microchip" H 6750 3750 50  0001 L CNN "Manufacturer_Name"
F 9 "MCP23017T-E/SS" H 6750 3650 50  0001 L CNN "Manufacturer_Part_Number"
	1    5700 4250
	1    0    0    -1  
$EndComp
Text GLabel 5600 5350 0    50   Input ~ 0
I2C1_SCL
Text GLabel 5600 5450 0    50   Input ~ 0
I2C1_SDA
Wire Wire Line
	5600 5450 5700 5450
Wire Wire Line
	5700 5350 5600 5350
NoConn ~ 5700 5550
$Comp
L power:+3V3 #PWR0210
U 1 1 5E5A0B1F
P 5600 5050
F 0 "#PWR0210" H 5600 4900 50  0001 C CNN
F 1 "+3V3" V 5615 5178 50  0000 L CNN
F 2 "" H 5600 5050 50  0001 C CNN
F 3 "" H 5600 5050 50  0001 C CNN
	1    5600 5050
	0    -1   -1   0   
$EndComp
$Comp
L power:GND #PWR0211
U 1 1 5E5A0B29
P 5600 5150
F 0 "#PWR0211" H 5600 4900 50  0001 C CNN
F 1 "GND" V 5605 5022 50  0000 R CNN
F 2 "" H 5600 5150 50  0001 C CNN
F 3 "" H 5600 5150 50  0001 C CNN
	1    5600 5150
	0    1    1    0   
$EndComp
Wire Wire Line
	5600 5150 5700 5150
Wire Wire Line
	5700 5050 5600 5050
NoConn ~ 5700 5250
$Comp
L power:GND #PWR0212
U 1 1 5E5A0B36
P 7000 5650
F 0 "#PWR0212" H 7000 5400 50  0001 C CNN
F 1 "GND" H 7005 5477 50  0000 C CNN
F 2 "" H 7000 5650 50  0001 C CNN
F 3 "" H 7000 5650 50  0001 C CNN
	1    7000 5650
	1    0    0    -1  
$EndComp
Wire Wire Line
	7000 5350 6900 5350
Wire Wire Line
	3900 5500 3900 5700
$Comp
L power:+3V3 #PWR0213
U 1 1 5E5A72DC
P 4000 5600
F 0 "#PWR0213" H 4000 5450 50  0001 C CNN
F 1 "+3V3" V 4015 5728 50  0000 L CNN
F 2 "" H 4000 5600 50  0001 C CNN
F 3 "" H 4000 5600 50  0001 C CNN
	1    4000 5600
	0    1    1    0   
$EndComp
Wire Wire Line
	4000 5600 3950 5600
Wire Wire Line
	7000 2650 7000 2850
$Comp
L power:+3V3 #PWR0214
U 1 1 5E5A7FE4
P 7100 5450
F 0 "#PWR0214" H 7100 5300 50  0001 C CNN
F 1 "+3V3" V 7115 5578 50  0000 L CNN
F 2 "" H 7100 5450 50  0001 C CNN
F 3 "" H 7100 5450 50  0001 C CNN
	1    7100 5450
	0    1    1    0   
$EndComp
$Comp
L power:+3V3 #PWR0215
U 1 1 5E5A8C23
P 7100 2750
F 0 "#PWR0215" H 7100 2600 50  0001 C CNN
F 1 "+3V3" V 7115 2878 50  0000 L CNN
F 2 "" H 7100 2750 50  0001 C CNN
F 3 "" H 7100 2750 50  0001 C CNN
	1    7100 2750
	0    1    1    0   
$EndComp
Wire Wire Line
	7100 2750 7050 2750
Wire Wire Line
	7000 5350 7000 5650
Wire Wire Line
	7100 5450 7050 5450
Wire Wire Line
	6950 5450 6950 5550
Wire Wire Line
	6950 5550 6900 5550
Connection ~ 6950 5450
Wire Wire Line
	6950 5450 6900 5450
Wire Wire Line
	7050 2750 7050 2550
Wire Wire Line
	7050 2550 6900 2550
Connection ~ 7050 2750
Wire Wire Line
	7050 2750 6900 2750
Wire Wire Line
	7050 5450 7050 5250
Wire Wire Line
	7050 5250 6900 5250
Connection ~ 7050 5450
Wire Wire Line
	7050 5450 6950 5450
Wire Wire Line
	3950 5600 3950 5300
Wire Wire Line
	3950 5300 3800 5300
$Comp
L power:+3V3 #PWR0216
U 1 1 5E5AD618
P 3950 2600
F 0 "#PWR0216" H 3950 2450 50  0001 C CNN
F 1 "+3V3" V 3965 2728 50  0000 L CNN
F 2 "" H 3950 2600 50  0001 C CNN
F 3 "" H 3950 2600 50  0001 C CNN
	1    3950 2600
	0    1    1    0   
$EndComp
Wire Wire Line
	3950 2600 3800 2600
Text GLabel 3900 2300 2    50   Input ~ 0
LL_MUTE_LR1
Text GLabel 3900 2200 2    50   Input ~ 0
LL_1DB_1
Text GLabel 3900 2100 2    50   Input ~ 0
LL_2DB_1
Text GLabel 3900 2000 2    50   Input ~ 0
LL_4DB_1
Text GLabel 3900 1900 2    50   Input ~ 0
LL_8DB_1
Text GLabel 3900 1800 2    50   Input ~ 0
LL_16DB_1
Text GLabel 3900 1700 2    50   Input ~ 0
LL_32DB_1
Wire Wire Line
	3900 1700 3800 1700
Wire Wire Line
	3800 1800 3900 1800
Wire Wire Line
	3900 1900 3800 1900
Wire Wire Line
	3800 2000 3900 2000
Wire Wire Line
	3900 2100 3800 2100
Wire Wire Line
	3800 2200 3900 2200
Wire Wire Line
	3900 2300 3800 2300
Text GLabel 2500 2300 0    50   Input ~ 0
LL_MUTE_LR2
Text GLabel 2500 2200 0    50   Input ~ 0
LL_1DB_2
Text GLabel 2500 2100 0    50   Input ~ 0
LL_2DB_2
Text GLabel 2500 2000 0    50   Input ~ 0
LL_4DB_2
Text GLabel 2500 1900 0    50   Input ~ 0
LL_8DB_2
Text GLabel 2500 1800 0    50   Input ~ 0
LL_16DB_2
Text GLabel 2500 1700 0    50   Input ~ 0
LL_32DB_2
Wire Wire Line
	2500 1700 2600 1700
Wire Wire Line
	2600 1800 2500 1800
Wire Wire Line
	2500 1900 2600 1900
Wire Wire Line
	2600 2000 2500 2000
Wire Wire Line
	2500 2100 2600 2100
Wire Wire Line
	2600 2200 2500 2200
Wire Wire Line
	2500 2300 2600 2300
Text GLabel 2500 5000 0    50   Input ~ 0
LL_MUTE_LR4
Text GLabel 2500 4900 0    50   Input ~ 0
LL_1DB_4
Text GLabel 2500 4800 0    50   Input ~ 0
LL_2DB_4
Text GLabel 2500 4700 0    50   Input ~ 0
LL_4DB_4
Text GLabel 2500 4600 0    50   Input ~ 0
LL_8DB_4
Text GLabel 2500 4500 0    50   Input ~ 0
LL_16DB_4
Text GLabel 2500 4400 0    50   Input ~ 0
LL_32DB_4
Wire Wire Line
	2500 4400 2600 4400
Wire Wire Line
	2600 4500 2500 4500
Wire Wire Line
	2500 4600 2600 4600
Wire Wire Line
	2600 4700 2500 4700
Wire Wire Line
	2500 4800 2600 4800
Wire Wire Line
	2600 4900 2500 4900
Wire Wire Line
	2500 5000 2600 5000
Text GLabel 3900 5000 2    50   Input ~ 0
LL_MUTE_LR3
Text GLabel 3900 4900 2    50   Input ~ 0
LL_1DB_3
Text GLabel 3900 4800 2    50   Input ~ 0
LL_2DB_3
Text GLabel 3900 4700 2    50   Input ~ 0
LL_4DB_3
Text GLabel 3900 4600 2    50   Input ~ 0
LL_8DB_3
Text GLabel 3900 4500 2    50   Input ~ 0
LL_16DB_3
Text GLabel 3900 4400 2    50   Input ~ 0
LL_32DB_3
Wire Wire Line
	3900 4400 3800 4400
Wire Wire Line
	3800 4500 3900 4500
Wire Wire Line
	3900 4600 3800 4600
Wire Wire Line
	3800 4700 3900 4700
Wire Wire Line
	3900 4800 3800 4800
Wire Wire Line
	3800 4900 3900 4900
Wire Wire Line
	3900 5000 3800 5000
NoConn ~ 3800 5200
NoConn ~ 3800 5100
NoConn ~ 3800 2400
NoConn ~ 3800 2500
NoConn ~ 6900 2350
NoConn ~ 6900 2450
NoConn ~ 6900 5050
NoConn ~ 6900 5150
$Comp
L power:+3V3 #PWR0217
U 1 1 5E5F1079
P 8450 1100
F 0 "#PWR0217" H 8450 950 50  0001 C CNN
F 1 "+3V3" V 8465 1228 50  0000 L CNN
F 2 "" H 8450 1100 50  0001 C CNN
F 3 "" H 8450 1100 50  0001 C CNN
	1    8450 1100
	0    -1   -1   0   
$EndComp
$Comp
L Device:C C24
U 1 1 5E5F1C93
P 8550 1300
F 0 "C24" H 8665 1346 50  0000 L CNN
F 1 "100n" H 8665 1255 50  0000 L CNN
F 2 "Capacitor_SMD:C_0805_2012Metric" H 8588 1150 50  0001 C CNN
F 3 "~" H 8550 1300 50  0001 C CNN
	1    8550 1300
	1    0    0    -1  
$EndComp
$Comp
L Device:C C25
U 1 1 5E5F325C
P 8950 1300
F 0 "C25" H 9065 1346 50  0000 L CNN
F 1 "100n" H 9065 1255 50  0000 L CNN
F 2 "Capacitor_SMD:C_0805_2012Metric" H 8988 1150 50  0001 C CNN
F 3 "~" H 8950 1300 50  0001 C CNN
	1    8950 1300
	1    0    0    -1  
$EndComp
$Comp
L power:GND #PWR0218
U 1 1 5E5F3B0A
P 8450 1500
F 0 "#PWR0218" H 8450 1250 50  0001 C CNN
F 1 "GND" V 8455 1372 50  0000 R CNN
F 2 "" H 8450 1500 50  0001 C CNN
F 3 "" H 8450 1500 50  0001 C CNN
	1    8450 1500
	0    1    1    0   
$EndComp
Wire Wire Line
	8450 1500 8550 1500
Wire Wire Line
	8550 1500 8550 1450
Wire Wire Line
	8450 1100 8550 1100
Wire Wire Line
	8550 1100 8550 1150
Wire Wire Line
	8550 1100 8950 1100
Wire Wire Line
	8950 1100 8950 1150
Connection ~ 8550 1100
Wire Wire Line
	8550 1500 8950 1500
Wire Wire Line
	8950 1500 8950 1450
Connection ~ 8550 1500
$Comp
L Device:C C26
U 1 1 5E604204
P 9350 1300
F 0 "C26" H 9465 1346 50  0000 L CNN
F 1 "100n" H 9465 1255 50  0000 L CNN
F 2 "Capacitor_SMD:C_0805_2012Metric" H 9388 1150 50  0001 C CNN
F 3 "~" H 9350 1300 50  0001 C CNN
	1    9350 1300
	1    0    0    -1  
$EndComp
Wire Wire Line
	8950 1100 9350 1100
Wire Wire Line
	9350 1100 9350 1150
Wire Wire Line
	8950 1500 9350 1500
Wire Wire Line
	9350 1500 9350 1450
Connection ~ 8950 1100
Connection ~ 8950 1500
$Comp
L Device:C C27
U 1 1 5E60ADB8
P 9750 1300
F 0 "C27" H 9865 1346 50  0000 L CNN
F 1 "100n" H 9865 1255 50  0000 L CNN
F 2 "Capacitor_SMD:C_0805_2012Metric" H 9788 1150 50  0001 C CNN
F 3 "~" H 9750 1300 50  0001 C CNN
	1    9750 1300
	1    0    0    -1  
$EndComp
Wire Wire Line
	9350 1100 9750 1100
Wire Wire Line
	9750 1100 9750 1150
Wire Wire Line
	9350 1500 9750 1500
Wire Wire Line
	9750 1500 9750 1450
Connection ~ 9350 1100
Connection ~ 9350 1500
Text GLabel 7000 2250 2    50   Input ~ 0
LL_MUTE_LR5
Text GLabel 7000 2150 2    50   Input ~ 0
LL_1DB_5
Text GLabel 7000 2050 2    50   Input ~ 0
LL_2DB_5
Text GLabel 7000 1950 2    50   Input ~ 0
LL_4DB_5
Text GLabel 7000 1850 2    50   Input ~ 0
LL_8DB_5
Text GLabel 7000 1750 2    50   Input ~ 0
LL_16DB_5
Text GLabel 7000 1650 2    50   Input ~ 0
LL_32DB_5
Wire Wire Line
	7000 1650 6900 1650
Wire Wire Line
	6900 1750 7000 1750
Wire Wire Line
	7000 1850 6900 1850
Wire Wire Line
	6900 1950 7000 1950
Wire Wire Line
	7000 2050 6900 2050
Wire Wire Line
	6900 2150 7000 2150
Wire Wire Line
	7000 2250 6900 2250
Text GLabel 7000 4950 2    50   Input ~ 0
LL_MUTE_PA1L
Text GLabel 7000 4850 2    50   Input ~ 0
LL_MUTE_PA1R
Wire Wire Line
	7000 4850 6900 4850
Wire Wire Line
	6900 4950 7000 4950
Text GLabel 7000 4750 2    50   Input ~ 0
LL_MUTE_PA2L
Text GLabel 7000 4650 2    50   Input ~ 0
LL_MUTE_PA2R
Wire Wire Line
	7000 4650 6900 4650
Wire Wire Line
	6900 4750 7000 4750
Text GLabel 7000 4550 2    50   Input ~ 0
LL_MUTE_PA3L
Text GLabel 7000 4450 2    50   Input ~ 0
LL_MUTE_PA3R
Wire Wire Line
	7000 4450 6900 4450
Wire Wire Line
	6900 4550 7000 4550
Text GLabel 7000 4350 2    50   Input ~ 0
LL_MUTE_PA4L
Text GLabel 7000 4250 2    50   Input ~ 0
LL_MUTE_PA4R
Wire Wire Line
	7000 4250 6900 4250
Wire Wire Line
	6900 4350 7000 4350
Text GLabel 5600 4850 0    50   Input ~ 0
LL_MUTE_PA5R
Text GLabel 5600 4950 0    50   Input ~ 0
LL_MUTE_PA5L
Wire Wire Line
	5600 4850 5700 4850
Wire Wire Line
	5600 4950 5700 4950
Text GLabel 5600 4250 0    50   Input ~ 0
GPIO_SPARE1
Text GLabel 5600 4350 0    50   Input ~ 0
GPIO_SPARE2
Text GLabel 5600 4450 0    50   Input ~ 0
GPIO_SPARE3
Text GLabel 5600 4550 0    50   Input ~ 0
GPIO_SPARE4
Text GLabel 5600 4650 0    50   Input ~ 0
GPIO_SPARE5
Text GLabel 5600 4750 0    50   Input ~ 0
GPIO_SPARE6
Wire Wire Line
	5600 4250 5700 4250
Wire Wire Line
	5700 4350 5600 4350
Wire Wire Line
	5600 4450 5700 4450
Wire Wire Line
	5700 4550 5600 4550
Wire Wire Line
	5600 4650 5700 4650
Wire Wire Line
	5700 4750 5600 4750
NoConn ~ 3800 4300
NoConn ~ 2600 4300
NoConn ~ 3800 1600
NoConn ~ 2600 1600
NoConn ~ 5700 1550
NoConn ~ 5700 1650
NoConn ~ 5700 1750
NoConn ~ 5700 1850
NoConn ~ 5700 1950
NoConn ~ 5700 2050
NoConn ~ 5700 2150
NoConn ~ 5700 2250
NoConn ~ 6900 1550
Wire Wire Line
	3950 5600 3800 5600
Connection ~ 3950 5600
$EndSCHEMATC
