EESchema Schematic File Version 4
EELAYER 30 0
EELAYER END
$Descr A4 11693 8268
encoding utf-8
Sheet 4 8
Title "VolCtrlDR-Controller"
Date "2020-02-25"
Rev "0.6"
Comp "T5! DIY Audio"
Comment1 ""
Comment2 ""
Comment3 ""
Comment4 ""
$EndDescr
$Comp
L SamacSys_Parts:74HC4002PW,118 IC1
U 1 1 5DDD127B
P 2500 1150
F 0 "IC1" H 3150 1415 50  0000 C CNN
F 1 "74HC4002PW,118" H 3150 1324 50  0000 C CNN
F 2 "SamacSys_Parts:SON65P440X500X110-14N" H 4100 1200 50  0001 L CNN
F 3 "https://assets.nexperia.com/documents/data-sheet/74HC_HCT4002.pdf" H 4100 1100 50  0001 L CNN
F 4 "" H 3650 450 50  0001 L CNN "RS Part Number"
F 5 "" H 3650 350 50  0001 L CNN "RS Price/Stock"
	1    2500 1150
	1    0    0    -1  
$EndComp
$Comp
L power:+3V3 #PWR0125
U 1 1 5DDD3BC5
P 5150 650
F 0 "#PWR0125" H 5150 500 50  0001 C CNN
F 1 "+3V3" V 5165 778 50  0000 L CNN
F 2 "" H 5150 650 50  0001 C CNN
F 3 "" H 5150 650 50  0001 C CNN
	1    5150 650 
	0    1    1    0   
$EndComp
$Comp
L Device:C C8
U 1 1 5DE951D7
P 7300 3150
F 0 "C8" H 7415 3196 50  0000 L CNN
F 1 "100n" H 7415 3105 50  0000 L CNN
F 2 "Capacitor_SMD:C_0805_2012Metric" H 7338 3000 50  0001 C CNN
F 3 "~" H 7300 3150 50  0001 C CNN
	1    7300 3150
	1    0    0    -1  
$EndComp
$Comp
L power:+3V3 #PWR0139
U 1 1 5DE95C16
P 7300 2900
F 0 "#PWR0139" H 7300 2750 50  0001 C CNN
F 1 "+3V3" H 7315 3073 50  0000 C CNN
F 2 "" H 7300 2900 50  0001 C CNN
F 3 "" H 7300 2900 50  0001 C CNN
	1    7300 2900
	1    0    0    -1  
$EndComp
$Comp
L power:GND #PWR0140
U 1 1 5DE96295
P 7300 3400
F 0 "#PWR0140" H 7300 3150 50  0001 C CNN
F 1 "GND" H 7305 3227 50  0000 C CNN
F 2 "" H 7300 3400 50  0001 C CNN
F 3 "" H 7300 3400 50  0001 C CNN
	1    7300 3400
	1    0    0    -1  
$EndComp
Wire Wire Line
	7300 2900 7300 2950
Wire Wire Line
	7300 3300 7300 3350
$Comp
L Device:C C9
U 1 1 5DE9C457
P 7700 3150
F 0 "C9" H 7815 3196 50  0000 L CNN
F 1 "100n" H 7815 3105 50  0000 L CNN
F 2 "Capacitor_SMD:C_0805_2012Metric" H 7738 3000 50  0001 C CNN
F 3 "~" H 7700 3150 50  0001 C CNN
	1    7700 3150
	1    0    0    -1  
$EndComp
$Comp
L Device:C C10
U 1 1 5DE9C888
P 8100 3150
F 0 "C10" H 8215 3196 50  0000 L CNN
F 1 "100n" H 8215 3105 50  0000 L CNN
F 2 "Capacitor_SMD:C_0805_2012Metric" H 8138 3000 50  0001 C CNN
F 3 "~" H 8100 3150 50  0001 C CNN
	1    8100 3150
	1    0    0    -1  
$EndComp
Wire Wire Line
	7300 2950 7700 2950
Connection ~ 7300 2950
Wire Wire Line
	7300 2950 7300 3000
Wire Wire Line
	8100 2950 8100 3000
Wire Wire Line
	7700 2950 7700 3000
Connection ~ 7700 2950
Wire Wire Line
	7700 2950 8100 2950
Wire Wire Line
	7300 3350 7700 3350
Connection ~ 7300 3350
Wire Wire Line
	7300 3350 7300 3400
Wire Wire Line
	8100 3350 8100 3300
Wire Wire Line
	7700 3300 7700 3350
Connection ~ 7700 3350
Wire Wire Line
	7700 3350 8100 3350
$Comp
L Device:R R7
U 1 1 5E7499F6
P 2300 850
F 0 "R7" H 2370 896 50  0000 L CNN
F 1 "10k" H 2370 805 50  0000 L CNN
F 2 "Resistor_SMD:R_0805_2012Metric" V 2230 850 50  0001 C CNN
F 3 "~" H 2300 850 50  0001 C CNN
	1    2300 850 
	1    0    0    -1  
$EndComp
$Comp
L Device:R R6
U 1 1 5E74AFEB
P 2050 850
F 0 "R6" H 2120 896 50  0000 L CNN
F 1 "10k" H 2120 805 50  0000 L CNN
F 2 "Resistor_SMD:R_0805_2012Metric" V 1980 850 50  0001 C CNN
F 3 "~" H 2050 850 50  0001 C CNN
	1    2050 850 
	1    0    0    -1  
$EndComp
$Comp
L Device:R R5
U 1 1 5E74B95B
P 1800 850
F 0 "R5" H 1870 896 50  0000 L CNN
F 1 "10k" H 1870 805 50  0000 L CNN
F 2 "Resistor_SMD:R_0805_2012Metric" V 1730 850 50  0001 C CNN
F 3 "~" H 1800 850 50  0001 C CNN
	1    1800 850 
	1    0    0    -1  
$EndComp
$Comp
L Device:R R4
U 1 1 5E74BCDB
P 1550 850
F 0 "R4" H 1620 896 50  0000 L CNN
F 1 "10k" H 1620 805 50  0000 L CNN
F 2 "Resistor_SMD:R_0805_2012Metric" V 1480 850 50  0001 C CNN
F 3 "~" H 1550 850 50  0001 C CNN
	1    1550 850 
	1    0    0    -1  
$EndComp
Wire Wire Line
	5150 650  4800 650 
Wire Wire Line
	1550 650  1550 700 
Wire Wire Line
	1800 650  1800 700 
Connection ~ 1800 650 
Wire Wire Line
	1800 650  1550 650 
Wire Wire Line
	2050 650  2050 700 
Connection ~ 2050 650 
Wire Wire Line
	2050 650  1800 650 
Wire Wire Line
	2300 650  2300 700 
Connection ~ 2300 650 
Wire Wire Line
	2300 650  2050 650 
Wire Wire Line
	2300 1000 2300 1250
Wire Wire Line
	2300 1250 2500 1250
Wire Wire Line
	2050 1000 2050 1350
Wire Wire Line
	2050 1350 2500 1350
Wire Wire Line
	1800 1000 1800 1450
Wire Wire Line
	1800 1450 2500 1450
Wire Wire Line
	1550 1000 1550 1550
Wire Wire Line
	1550 1550 2500 1550
$Comp
L Device:C C28
U 1 1 5E78FC0E
P 1550 2000
F 0 "C28" H 1600 2100 50  0000 L CNN
F 1 "10n" H 1600 1900 50  0000 L CNN
F 2 "Capacitor_SMD:C_0805_2012Metric" H 1588 1850 50  0001 C CNN
F 3 "~" H 1550 2000 50  0001 C CNN
	1    1550 2000
	1    0    0    -1  
$EndComp
$Comp
L Device:C C29
U 1 1 5E791B4F
P 1800 2000
F 0 "C29" H 1850 2100 50  0000 L CNN
F 1 "10n" H 1850 1900 50  0000 L CNN
F 2 "Capacitor_SMD:C_0805_2012Metric" H 1838 1850 50  0001 C CNN
F 3 "~" H 1800 2000 50  0001 C CNN
	1    1800 2000
	1    0    0    -1  
$EndComp
$Comp
L Device:C C30
U 1 1 5E791EBC
P 2050 2000
F 0 "C30" H 2100 2100 50  0000 L CNN
F 1 "10n" H 2100 1900 50  0000 L CNN
F 2 "Capacitor_SMD:C_0805_2012Metric" H 2088 1850 50  0001 C CNN
F 3 "~" H 2050 2000 50  0001 C CNN
	1    2050 2000
	1    0    0    -1  
$EndComp
$Comp
L Device:C C31
U 1 1 5E7923D4
P 2300 2000
F 0 "C31" H 2350 2100 50  0000 L CNN
F 1 "10n" H 2350 1900 50  0000 L CNN
F 2 "Capacitor_SMD:C_0805_2012Metric" H 2338 1850 50  0001 C CNN
F 3 "~" H 2300 2000 50  0001 C CNN
	1    2300 2000
	1    0    0    -1  
$EndComp
Wire Wire Line
	1550 1550 1550 1850
Connection ~ 1550 1550
Wire Wire Line
	1800 1850 1800 1450
Connection ~ 1800 1450
Wire Wire Line
	2050 1350 2050 1850
Connection ~ 2050 1350
Wire Wire Line
	2300 1250 2300 1850
Connection ~ 2300 1250
$Comp
L power:GND #PWR0126
U 1 1 5E7B3791
P 2500 2250
F 0 "#PWR0126" H 2500 2000 50  0001 C CNN
F 1 "GND" H 2505 2077 50  0000 C CNN
F 2 "" H 2500 2250 50  0001 C CNN
F 3 "" H 2500 2250 50  0001 C CNN
	1    2500 2250
	1    0    0    -1  
$EndComp
Wire Wire Line
	2500 1750 2500 2200
Wire Wire Line
	2500 2200 2300 2200
Wire Wire Line
	2300 2200 2300 2150
Connection ~ 2500 2200
Wire Wire Line
	2500 2200 2500 2250
Wire Wire Line
	2300 2200 2050 2200
Wire Wire Line
	2050 2200 2050 2150
Connection ~ 2300 2200
Wire Wire Line
	2050 2200 1800 2200
Wire Wire Line
	1800 2200 1800 2150
Connection ~ 2050 2200
Wire Wire Line
	1800 2200 1550 2200
Wire Wire Line
	1550 2200 1550 2150
Connection ~ 1800 2200
Text GLabel 1450 1350 0    50   Input ~ 0
PG_PA1R
Wire Wire Line
	1450 1250 2300 1250
Text GLabel 1450 1250 0    50   Input ~ 0
PG_PA1L
Text GLabel 1450 1550 0    50   Input ~ 0
PG_PA2R
Wire Wire Line
	1450 1350 2050 1350
Wire Wire Line
	1450 1450 1800 1450
Wire Wire Line
	2500 1150 1450 1150
Text GLabel 1450 1150 0    50   Input ~ 0
PG_CMB_1_1
$Comp
L Device:R R8
U 1 1 5E828607
P 4050 850
F 0 "R8" H 4120 896 50  0000 L CNN
F 1 "10k" H 4120 805 50  0000 L CNN
F 2 "Resistor_SMD:R_0805_2012Metric" V 3980 850 50  0001 C CNN
F 3 "~" H 4050 850 50  0001 C CNN
	1    4050 850 
	1    0    0    -1  
$EndComp
$Comp
L Device:R R9
U 1 1 5E828E44
P 4300 850
F 0 "R9" H 4370 896 50  0000 L CNN
F 1 "10k" H 4370 805 50  0000 L CNN
F 2 "Resistor_SMD:R_0805_2012Metric" V 4230 850 50  0001 C CNN
F 3 "~" H 4300 850 50  0001 C CNN
	1    4300 850 
	1    0    0    -1  
$EndComp
$Comp
L Device:R R10
U 1 1 5E829235
P 4550 850
F 0 "R10" H 4620 896 50  0000 L CNN
F 1 "10k" H 4620 805 50  0000 L CNN
F 2 "Resistor_SMD:R_0805_2012Metric" V 4480 850 50  0001 C CNN
F 3 "~" H 4550 850 50  0001 C CNN
	1    4550 850 
	1    0    0    -1  
$EndComp
$Comp
L Device:R R11
U 1 1 5E82964B
P 4800 850
F 0 "R11" H 4870 896 50  0000 L CNN
F 1 "10k" H 4870 805 50  0000 L CNN
F 2 "Resistor_SMD:R_0805_2012Metric" V 4730 850 50  0001 C CNN
F 3 "~" H 4800 850 50  0001 C CNN
	1    4800 850 
	1    0    0    -1  
$EndComp
Wire Wire Line
	4050 650  4050 700 
Connection ~ 4050 650 
Wire Wire Line
	4050 650  3850 650 
Wire Wire Line
	4300 650  4300 700 
Connection ~ 4300 650 
Wire Wire Line
	4300 650  4050 650 
Wire Wire Line
	4550 650  4550 700 
Connection ~ 4550 650 
Wire Wire Line
	4550 650  4300 650 
Wire Wire Line
	4800 700  4800 650 
Connection ~ 4800 650 
Wire Wire Line
	4800 650  4550 650 
Wire Wire Line
	4050 1000 4050 1350
Wire Wire Line
	4050 1350 3800 1350
Wire Wire Line
	3800 1450 4300 1450
Wire Wire Line
	4300 1450 4300 1000
Wire Wire Line
	3800 1550 4550 1550
Wire Wire Line
	4550 1550 4550 1000
Wire Wire Line
	3800 1650 4800 1650
Wire Wire Line
	4800 1650 4800 1000
Wire Wire Line
	3800 1150 3850 1150
Wire Wire Line
	3850 1150 3850 650 
Connection ~ 3850 650 
Wire Wire Line
	3850 650  2300 650 
Text GLabel 4900 1250 2    50   Input ~ 0
PG_CMB_1_2
Wire Wire Line
	4900 1250 3800 1250
$Comp
L Device:C C35
U 1 1 5E896164
P 4800 2000
F 0 "C35" H 4850 2100 50  0000 L CNN
F 1 "10n" H 4850 1900 50  0000 L CNN
F 2 "Capacitor_SMD:C_0805_2012Metric" H 4838 1850 50  0001 C CNN
F 3 "~" H 4800 2000 50  0001 C CNN
	1    4800 2000
	-1   0    0    -1  
$EndComp
$Comp
L Device:C C34
U 1 1 5E89616E
P 4550 2000
F 0 "C34" H 4600 2100 50  0000 L CNN
F 1 "10n" H 4600 1900 50  0000 L CNN
F 2 "Capacitor_SMD:C_0805_2012Metric" H 4588 1850 50  0001 C CNN
F 3 "~" H 4550 2000 50  0001 C CNN
	1    4550 2000
	-1   0    0    -1  
$EndComp
$Comp
L Device:C C33
U 1 1 5E896178
P 4300 2000
F 0 "C33" H 4350 2100 50  0000 L CNN
F 1 "10n" H 4350 1900 50  0000 L CNN
F 2 "Capacitor_SMD:C_0805_2012Metric" H 4338 1850 50  0001 C CNN
F 3 "~" H 4300 2000 50  0001 C CNN
	1    4300 2000
	-1   0    0    -1  
$EndComp
$Comp
L Device:C C32
U 1 1 5E896182
P 4050 2000
F 0 "C32" H 4100 2100 50  0000 L CNN
F 1 "10n" H 4100 1900 50  0000 L CNN
F 2 "Capacitor_SMD:C_0805_2012Metric" H 4088 1850 50  0001 C CNN
F 3 "~" H 4050 2000 50  0001 C CNN
	1    4050 2000
	-1   0    0    -1  
$EndComp
$Comp
L power:GND #PWR0127
U 1 1 5E89618C
P 4050 2250
F 0 "#PWR0127" H 4050 2000 50  0001 C CNN
F 1 "GND" H 4055 2077 50  0000 C CNN
F 2 "" H 4050 2250 50  0001 C CNN
F 3 "" H 4050 2250 50  0001 C CNN
	1    4050 2250
	-1   0    0    -1  
$EndComp
Wire Wire Line
	4050 2200 4050 2150
Wire Wire Line
	4050 2200 4300 2200
Wire Wire Line
	4300 2200 4300 2150
Connection ~ 4050 2200
Wire Wire Line
	4300 2200 4550 2200
Wire Wire Line
	4550 2200 4550 2150
Connection ~ 4300 2200
Wire Wire Line
	4550 2200 4800 2200
Wire Wire Line
	4800 2200 4800 2150
Connection ~ 4550 2200
Wire Wire Line
	4050 2250 4050 2200
Wire Wire Line
	4050 1850 4050 1350
Connection ~ 4050 1350
Wire Wire Line
	4300 1450 4300 1850
Connection ~ 4300 1450
Connection ~ 4550 1550
Wire Wire Line
	4800 1650 4800 1850
Connection ~ 4800 1650
Text GLabel 1450 1450 0    50   Input ~ 0
PG_PA2L
Wire Wire Line
	1450 1550 1550 1550
Text GLabel 4900 1550 2    50   Input ~ 0
PG_PA4L
Wire Wire Line
	4900 1650 4800 1650
Text GLabel 4900 1650 2    50   Input ~ 0
PG_PA4R
Wire Wire Line
	4550 1550 4900 1550
$Comp
L SamacSys_Parts:74HC4002PW,118 IC2
U 1 1 5E93D7D5
P 2500 3150
F 0 "IC2" H 3150 3415 50  0000 C CNN
F 1 "74HC4002PW,118" H 3150 3324 50  0000 C CNN
F 2 "SamacSys_Parts:SON65P440X500X110-14N" H 4100 3200 50  0001 L CNN
F 3 "https://assets.nexperia.com/documents/data-sheet/74HC_HCT4002.pdf" H 4100 3100 50  0001 L CNN
F 4 "" H 3650 2450 50  0001 L CNN "RS Part Number"
F 5 "" H 3650 2350 50  0001 L CNN "RS Price/Stock"
	1    2500 3150
	1    0    0    -1  
$EndComp
$Comp
L power:+3V3 #PWR0128
U 1 1 5E93D7DF
P 5150 2650
F 0 "#PWR0128" H 5150 2500 50  0001 C CNN
F 1 "+3V3" V 5165 2778 50  0000 L CNN
F 2 "" H 5150 2650 50  0001 C CNN
F 3 "" H 5150 2650 50  0001 C CNN
	1    5150 2650
	0    1    1    0   
$EndComp
$Comp
L Device:R R15
U 1 1 5E93D7E9
P 2300 2850
F 0 "R15" H 2370 2896 50  0000 L CNN
F 1 "10k" H 2370 2805 50  0000 L CNN
F 2 "Resistor_SMD:R_0805_2012Metric" V 2230 2850 50  0001 C CNN
F 3 "~" H 2300 2850 50  0001 C CNN
	1    2300 2850
	1    0    0    -1  
$EndComp
$Comp
L Device:R R14
U 1 1 5E93D7F3
P 2050 2850
F 0 "R14" H 2120 2896 50  0000 L CNN
F 1 "10k" H 2120 2805 50  0000 L CNN
F 2 "Resistor_SMD:R_0805_2012Metric" V 1980 2850 50  0001 C CNN
F 3 "~" H 2050 2850 50  0001 C CNN
	1    2050 2850
	1    0    0    -1  
$EndComp
$Comp
L Device:R R13
U 1 1 5E93D7FD
P 1800 2850
F 0 "R13" H 1870 2896 50  0000 L CNN
F 1 "10k" H 1870 2805 50  0000 L CNN
F 2 "Resistor_SMD:R_0805_2012Metric" V 1730 2850 50  0001 C CNN
F 3 "~" H 1800 2850 50  0001 C CNN
	1    1800 2850
	1    0    0    -1  
$EndComp
$Comp
L Device:R R12
U 1 1 5E93D807
P 1550 2850
F 0 "R12" H 1620 2896 50  0000 L CNN
F 1 "10k" H 1620 2805 50  0000 L CNN
F 2 "Resistor_SMD:R_0805_2012Metric" V 1480 2850 50  0001 C CNN
F 3 "~" H 1550 2850 50  0001 C CNN
	1    1550 2850
	1    0    0    -1  
$EndComp
Wire Wire Line
	5150 2650 4800 2650
Wire Wire Line
	1550 2650 1550 2700
Wire Wire Line
	1800 2650 1800 2700
Connection ~ 1800 2650
Wire Wire Line
	1800 2650 1550 2650
Wire Wire Line
	2050 2650 2050 2700
Connection ~ 2050 2650
Wire Wire Line
	2050 2650 1800 2650
Wire Wire Line
	2300 2650 2300 2700
Connection ~ 2300 2650
Wire Wire Line
	2300 2650 2050 2650
Wire Wire Line
	1800 3000 1800 3450
Wire Wire Line
	1800 3450 2500 3450
Wire Wire Line
	1550 3000 1550 3550
Wire Wire Line
	1550 3550 2500 3550
$Comp
L Device:C C36
U 1 1 5E93D824
P 1550 4000
F 0 "C36" H 1600 4100 50  0000 L CNN
F 1 "10n" H 1600 3900 50  0000 L CNN
F 2 "Capacitor_SMD:C_0805_2012Metric" H 1588 3850 50  0001 C CNN
F 3 "~" H 1550 4000 50  0001 C CNN
	1    1550 4000
	1    0    0    -1  
$EndComp
$Comp
L Device:C C37
U 1 1 5E93D82E
P 1800 4000
F 0 "C37" H 1850 4100 50  0000 L CNN
F 1 "10n" H 1850 3900 50  0000 L CNN
F 2 "Capacitor_SMD:C_0805_2012Metric" H 1838 3850 50  0001 C CNN
F 3 "~" H 1800 4000 50  0001 C CNN
	1    1800 4000
	1    0    0    -1  
$EndComp
$Comp
L Device:C C38
U 1 1 5E93D838
P 2050 4000
F 0 "C38" H 2100 4100 50  0000 L CNN
F 1 "10n" H 2100 3900 50  0000 L CNN
F 2 "Capacitor_SMD:C_0805_2012Metric" H 2088 3850 50  0001 C CNN
F 3 "~" H 2050 4000 50  0001 C CNN
	1    2050 4000
	1    0    0    -1  
$EndComp
$Comp
L Device:C C39
U 1 1 5E93D842
P 2300 4000
F 0 "C39" H 2350 4100 50  0000 L CNN
F 1 "10n" H 2350 3900 50  0000 L CNN
F 2 "Capacitor_SMD:C_0805_2012Metric" H 2338 3850 50  0001 C CNN
F 3 "~" H 2300 4000 50  0001 C CNN
	1    2300 4000
	1    0    0    -1  
$EndComp
Wire Wire Line
	1550 3550 1550 3850
Connection ~ 1550 3550
Wire Wire Line
	1800 3850 1800 3450
Connection ~ 1800 3450
$Comp
L power:GND #PWR0129
U 1 1 5E93D854
P 2500 4250
F 0 "#PWR0129" H 2500 4000 50  0001 C CNN
F 1 "GND" H 2505 4077 50  0000 C CNN
F 2 "" H 2500 4250 50  0001 C CNN
F 3 "" H 2500 4250 50  0001 C CNN
	1    2500 4250
	1    0    0    -1  
$EndComp
Wire Wire Line
	2500 3750 2500 4200
Wire Wire Line
	2500 4200 2300 4200
Wire Wire Line
	2300 4200 2300 4150
Connection ~ 2500 4200
Wire Wire Line
	2500 4200 2500 4250
Wire Wire Line
	2300 4200 2050 4200
Wire Wire Line
	2050 4200 2050 4150
Connection ~ 2300 4200
Wire Wire Line
	2050 4200 1800 4200
Wire Wire Line
	1800 4200 1800 4150
Connection ~ 2050 4200
Wire Wire Line
	1800 4200 1550 4200
Wire Wire Line
	1550 4200 1550 4150
Connection ~ 1800 4200
Wire Wire Line
	1450 3450 1800 3450
$Comp
L Device:R R16
U 1 1 5E93D874
P 4050 2850
F 0 "R16" H 4120 2896 50  0000 L CNN
F 1 "10k" H 4120 2805 50  0000 L CNN
F 2 "Resistor_SMD:R_0805_2012Metric" V 3980 2850 50  0001 C CNN
F 3 "~" H 4050 2850 50  0001 C CNN
	1    4050 2850
	1    0    0    -1  
$EndComp
$Comp
L Device:R R17
U 1 1 5E93D87E
P 4300 2850
F 0 "R17" H 4370 2896 50  0000 L CNN
F 1 "10k" H 4370 2805 50  0000 L CNN
F 2 "Resistor_SMD:R_0805_2012Metric" V 4230 2850 50  0001 C CNN
F 3 "~" H 4300 2850 50  0001 C CNN
	1    4300 2850
	1    0    0    -1  
$EndComp
$Comp
L Device:R R18
U 1 1 5E93D888
P 4550 2850
F 0 "R18" H 4620 2896 50  0000 L CNN
F 1 "10k" H 4620 2805 50  0000 L CNN
F 2 "Resistor_SMD:R_0805_2012Metric" V 4480 2850 50  0001 C CNN
F 3 "~" H 4550 2850 50  0001 C CNN
	1    4550 2850
	1    0    0    -1  
$EndComp
$Comp
L Device:R R19
U 1 1 5E93D892
P 4800 2850
F 0 "R19" H 4870 2896 50  0000 L CNN
F 1 "10k" H 4870 2805 50  0000 L CNN
F 2 "Resistor_SMD:R_0805_2012Metric" V 4730 2850 50  0001 C CNN
F 3 "~" H 4800 2850 50  0001 C CNN
	1    4800 2850
	1    0    0    -1  
$EndComp
Wire Wire Line
	4050 2650 4050 2700
Connection ~ 4050 2650
Wire Wire Line
	4050 2650 3850 2650
Wire Wire Line
	4300 2650 4300 2700
Connection ~ 4300 2650
Wire Wire Line
	4300 2650 4050 2650
Wire Wire Line
	4550 2650 4550 2700
Connection ~ 4550 2650
Wire Wire Line
	4550 2650 4300 2650
Wire Wire Line
	4800 2700 4800 2650
Connection ~ 4800 2650
Wire Wire Line
	4800 2650 4550 2650
Wire Wire Line
	4050 3000 4050 3350
Wire Wire Line
	4050 3350 3800 3350
Wire Wire Line
	3800 3450 4300 3450
Wire Wire Line
	4300 3450 4300 3000
Wire Wire Line
	3800 3550 4550 3550
Wire Wire Line
	4550 3550 4550 3000
Wire Wire Line
	3800 3650 4800 3650
Wire Wire Line
	4800 3650 4800 3000
Wire Wire Line
	3800 3150 3850 3150
Wire Wire Line
	3850 3150 3850 2650
Connection ~ 3850 2650
Wire Wire Line
	3850 2650 2300 2650
Text GLabel 4900 3250 2    50   Input ~ 0
PG_CMB_1_4
Wire Wire Line
	4900 3250 3800 3250
$Comp
L Device:C C43
U 1 1 5E93D8B6
P 4800 4000
F 0 "C43" H 4850 4100 50  0000 L CNN
F 1 "10n" H 4850 3900 50  0000 L CNN
F 2 "Capacitor_SMD:C_0805_2012Metric" H 4838 3850 50  0001 C CNN
F 3 "~" H 4800 4000 50  0001 C CNN
	1    4800 4000
	-1   0    0    -1  
$EndComp
$Comp
L Device:C C42
U 1 1 5E93D8C0
P 4550 4000
F 0 "C42" H 4600 4100 50  0000 L CNN
F 1 "10n" H 4600 3900 50  0000 L CNN
F 2 "Capacitor_SMD:C_0805_2012Metric" H 4588 3850 50  0001 C CNN
F 3 "~" H 4550 4000 50  0001 C CNN
	1    4550 4000
	-1   0    0    -1  
$EndComp
$Comp
L Device:C C41
U 1 1 5E93D8CA
P 4300 4000
F 0 "C41" H 4350 4100 50  0000 L CNN
F 1 "10n" H 4350 3900 50  0000 L CNN
F 2 "Capacitor_SMD:C_0805_2012Metric" H 4338 3850 50  0001 C CNN
F 3 "~" H 4300 4000 50  0001 C CNN
	1    4300 4000
	-1   0    0    -1  
$EndComp
$Comp
L Device:C C40
U 1 1 5E93D8D4
P 4050 4000
F 0 "C40" H 4100 4100 50  0000 L CNN
F 1 "10n" H 4100 3900 50  0000 L CNN
F 2 "Capacitor_SMD:C_0805_2012Metric" H 4088 3850 50  0001 C CNN
F 3 "~" H 4050 4000 50  0001 C CNN
	1    4050 4000
	-1   0    0    -1  
$EndComp
$Comp
L power:GND #PWR0130
U 1 1 5E93D8DE
P 4050 4250
F 0 "#PWR0130" H 4050 4000 50  0001 C CNN
F 1 "GND" H 4055 4077 50  0000 C CNN
F 2 "" H 4050 4250 50  0001 C CNN
F 3 "" H 4050 4250 50  0001 C CNN
	1    4050 4250
	-1   0    0    -1  
$EndComp
Wire Wire Line
	4050 4200 4050 4150
Wire Wire Line
	4050 4200 4300 4200
Wire Wire Line
	4300 4200 4300 4150
Connection ~ 4050 4200
Wire Wire Line
	4300 4200 4550 4200
Wire Wire Line
	4550 4200 4550 4150
Connection ~ 4300 4200
Wire Wire Line
	4550 4200 4800 4200
Wire Wire Line
	4800 4200 4800 4150
Connection ~ 4550 4200
Wire Wire Line
	4050 4250 4050 4200
Wire Wire Line
	4050 3850 4050 3350
Connection ~ 4050 3350
Wire Wire Line
	4300 3450 4300 3850
Connection ~ 4300 3450
Connection ~ 4550 3550
Wire Wire Line
	4800 3650 4800 3850
Connection ~ 4800 3650
Wire Wire Line
	1450 3550 1550 3550
Wire Wire Line
	4900 3650 4800 3650
Wire Wire Line
	4550 3550 4900 3550
Text GLabel 1450 3150 0    50   Input ~ 0
PG_CMB_1_3
Text GLabel 4900 1350 2    50   Input ~ 0
PG_PA3L
Wire Wire Line
	4900 1450 4300 1450
Text GLabel 4900 1450 2    50   Input ~ 0
PG_PA3R
Wire Wire Line
	4900 1350 4050 1350
Text GLabel 1450 3250 0    50   Input ~ 0
PG_PA5R
Text GLabel 1450 3350 0    50   Input ~ 0
PG_PA5L
$Comp
L SamacSys_Parts:74HC4002PW,118 IC3
U 1 1 5E99D567
P 2500 5150
F 0 "IC3" H 3150 5415 50  0000 C CNN
F 1 "74HC4002PW,118" H 3150 5324 50  0000 C CNN
F 2 "SamacSys_Parts:SON65P440X500X110-14N" H 4100 5200 50  0001 L CNN
F 3 "https://assets.nexperia.com/documents/data-sheet/74HC_HCT4002.pdf" H 4100 5100 50  0001 L CNN
F 4 "" H 3650 4450 50  0001 L CNN "RS Part Number"
F 5 "" H 3650 4350 50  0001 L CNN "RS Price/Stock"
	1    2500 5150
	1    0    0    -1  
$EndComp
$Comp
L power:+3V3 #PWR0131
U 1 1 5E99D571
P 5150 4650
F 0 "#PWR0131" H 5150 4500 50  0001 C CNN
F 1 "+3V3" V 5165 4778 50  0000 L CNN
F 2 "" H 5150 4650 50  0001 C CNN
F 3 "" H 5150 4650 50  0001 C CNN
	1    5150 4650
	0    1    1    0   
$EndComp
$Comp
L Device:R R23
U 1 1 5E99D57B
P 2300 4850
F 0 "R23" H 2370 4896 50  0000 L CNN
F 1 "10k" H 2370 4805 50  0000 L CNN
F 2 "Resistor_SMD:R_0805_2012Metric" V 2230 4850 50  0001 C CNN
F 3 "~" H 2300 4850 50  0001 C CNN
	1    2300 4850
	1    0    0    -1  
$EndComp
$Comp
L Device:R R22
U 1 1 5E99D585
P 2050 4850
F 0 "R22" H 2120 4896 50  0000 L CNN
F 1 "10k" H 2120 4805 50  0000 L CNN
F 2 "Resistor_SMD:R_0805_2012Metric" V 1980 4850 50  0001 C CNN
F 3 "~" H 2050 4850 50  0001 C CNN
	1    2050 4850
	1    0    0    -1  
$EndComp
$Comp
L Device:R R21
U 1 1 5E99D58F
P 1800 4850
F 0 "R21" H 1870 4896 50  0000 L CNN
F 1 "10k" H 1870 4805 50  0000 L CNN
F 2 "Resistor_SMD:R_0805_2012Metric" V 1730 4850 50  0001 C CNN
F 3 "~" H 1800 4850 50  0001 C CNN
	1    1800 4850
	1    0    0    -1  
$EndComp
$Comp
L Device:R R20
U 1 1 5E99D599
P 1550 4850
F 0 "R20" H 1620 4896 50  0000 L CNN
F 1 "10k" H 1620 4805 50  0000 L CNN
F 2 "Resistor_SMD:R_0805_2012Metric" V 1480 4850 50  0001 C CNN
F 3 "~" H 1550 4850 50  0001 C CNN
	1    1550 4850
	1    0    0    -1  
$EndComp
Wire Wire Line
	5150 4650 4800 4650
Wire Wire Line
	1550 4650 1550 4700
Wire Wire Line
	1800 4650 1800 4700
Connection ~ 1800 4650
Wire Wire Line
	1800 4650 1550 4650
Wire Wire Line
	2050 4650 2050 4700
Connection ~ 2050 4650
Wire Wire Line
	2050 4650 1800 4650
Wire Wire Line
	2300 4650 2300 4700
Connection ~ 2300 4650
Wire Wire Line
	2300 4650 2050 4650
Wire Wire Line
	2300 5000 2300 5250
Wire Wire Line
	2300 5250 2500 5250
Wire Wire Line
	2050 5000 2050 5350
Wire Wire Line
	2050 5350 2500 5350
Wire Wire Line
	1800 5000 1800 5450
Wire Wire Line
	1800 5450 2500 5450
Wire Wire Line
	1550 5000 1550 5550
Wire Wire Line
	1550 5550 2500 5550
$Comp
L Device:C C14
U 1 1 5E99D5B6
P 1550 6000
F 0 "C14" H 1600 6100 50  0000 L CNN
F 1 "10n" H 1600 5900 50  0000 L CNN
F 2 "Capacitor_SMD:C_0805_2012Metric" H 1588 5850 50  0001 C CNN
F 3 "~" H 1550 6000 50  0001 C CNN
	1    1550 6000
	1    0    0    -1  
$EndComp
$Comp
L Device:C C15
U 1 1 5E99D5C0
P 1800 6000
F 0 "C15" H 1850 6100 50  0000 L CNN
F 1 "10n" H 1850 5900 50  0000 L CNN
F 2 "Capacitor_SMD:C_0805_2012Metric" H 1838 5850 50  0001 C CNN
F 3 "~" H 1800 6000 50  0001 C CNN
	1    1800 6000
	1    0    0    -1  
$EndComp
$Comp
L Device:C C16
U 1 1 5E99D5CA
P 2050 6000
F 0 "C16" H 2100 6100 50  0000 L CNN
F 1 "10n" H 2100 5900 50  0000 L CNN
F 2 "Capacitor_SMD:C_0805_2012Metric" H 2088 5850 50  0001 C CNN
F 3 "~" H 2050 6000 50  0001 C CNN
	1    2050 6000
	1    0    0    -1  
$EndComp
$Comp
L Device:C C44
U 1 1 5E99D5D4
P 2300 6000
F 0 "C44" H 2350 6100 50  0000 L CNN
F 1 "10n" H 2350 5900 50  0000 L CNN
F 2 "Capacitor_SMD:C_0805_2012Metric" H 2338 5850 50  0001 C CNN
F 3 "~" H 2300 6000 50  0001 C CNN
	1    2300 6000
	1    0    0    -1  
$EndComp
Wire Wire Line
	1550 5550 1550 5850
Connection ~ 1550 5550
Wire Wire Line
	1800 5850 1800 5450
Connection ~ 1800 5450
Wire Wire Line
	2050 5350 2050 5850
Connection ~ 2050 5350
Wire Wire Line
	2300 5250 2300 5850
Connection ~ 2300 5250
$Comp
L power:GND #PWR0132
U 1 1 5E99D5E6
P 2500 6250
F 0 "#PWR0132" H 2500 6000 50  0001 C CNN
F 1 "GND" H 2505 6077 50  0000 C CNN
F 2 "" H 2500 6250 50  0001 C CNN
F 3 "" H 2500 6250 50  0001 C CNN
	1    2500 6250
	1    0    0    -1  
$EndComp
Wire Wire Line
	2500 5750 2500 6200
Wire Wire Line
	2500 6200 2300 6200
Wire Wire Line
	2300 6200 2300 6150
Connection ~ 2500 6200
Wire Wire Line
	2500 6200 2500 6250
Wire Wire Line
	2300 6200 2050 6200
Wire Wire Line
	2050 6200 2050 6150
Connection ~ 2300 6200
Wire Wire Line
	2050 6200 1800 6200
Wire Wire Line
	1800 6200 1800 6150
Connection ~ 2050 6200
Wire Wire Line
	1800 6200 1550 6200
Wire Wire Line
	1550 6200 1550 6150
Connection ~ 1800 6200
Wire Wire Line
	1450 5250 2300 5250
Wire Wire Line
	1450 5350 2050 5350
Wire Wire Line
	1450 5450 1800 5450
Wire Wire Line
	2500 5150 1450 5150
$Comp
L Device:R R25
U 1 1 5E99D60C
P 4300 4850
F 0 "R25" H 4370 4896 50  0000 L CNN
F 1 "10k" H 4370 4805 50  0000 L CNN
F 2 "Resistor_SMD:R_0805_2012Metric" V 4230 4850 50  0001 C CNN
F 3 "~" H 4300 4850 50  0001 C CNN
	1    4300 4850
	1    0    0    -1  
$EndComp
$Comp
L Device:R R26
U 1 1 5E99D616
P 4550 4850
F 0 "R26" H 4620 4896 50  0000 L CNN
F 1 "10k" H 4620 4805 50  0000 L CNN
F 2 "Resistor_SMD:R_0805_2012Metric" V 4480 4850 50  0001 C CNN
F 3 "~" H 4550 4850 50  0001 C CNN
	1    4550 4850
	1    0    0    -1  
$EndComp
$Comp
L Device:R R27
U 1 1 5E99D620
P 4800 4850
F 0 "R27" H 4870 4896 50  0000 L CNN
F 1 "10k" H 4870 4805 50  0000 L CNN
F 2 "Resistor_SMD:R_0805_2012Metric" V 4730 4850 50  0001 C CNN
F 3 "~" H 4800 4850 50  0001 C CNN
	1    4800 4850
	1    0    0    -1  
$EndComp
Wire Wire Line
	4300 4650 4300 4700
Connection ~ 4300 4650
Wire Wire Line
	4550 4650 4550 4700
Connection ~ 4550 4650
Wire Wire Line
	4550 4650 4300 4650
Wire Wire Line
	4800 4700 4800 4650
Connection ~ 4800 4650
Wire Wire Line
	4800 4650 4550 4650
Wire Wire Line
	4050 5350 3800 5350
Wire Wire Line
	3800 5450 4300 5450
Wire Wire Line
	4300 5450 4300 5000
Wire Wire Line
	3800 5550 4550 5550
Wire Wire Line
	4550 5550 4550 5000
Wire Wire Line
	3800 5650 4800 5650
Wire Wire Line
	4800 5650 4800 5000
Wire Wire Line
	3800 5150 3850 5150
Wire Wire Line
	3850 5150 3850 4650
Connection ~ 3850 4650
Wire Wire Line
	3850 4650 2300 4650
Text GLabel 4900 5250 2    50   Input ~ 0
PG_CMB_1_6
Wire Wire Line
	4900 5250 3800 5250
$Comp
L Device:C C48
U 1 1 5E99D644
P 4800 6000
F 0 "C48" H 4850 6100 50  0000 L CNN
F 1 "10n" H 4850 5900 50  0000 L CNN
F 2 "Capacitor_SMD:C_0805_2012Metric" H 4838 5850 50  0001 C CNN
F 3 "~" H 4800 6000 50  0001 C CNN
	1    4800 6000
	-1   0    0    -1  
$EndComp
$Comp
L Device:C C47
U 1 1 5E99D64E
P 4550 6000
F 0 "C47" H 4600 6100 50  0000 L CNN
F 1 "10n" H 4600 5900 50  0000 L CNN
F 2 "Capacitor_SMD:C_0805_2012Metric" H 4588 5850 50  0001 C CNN
F 3 "~" H 4550 6000 50  0001 C CNN
	1    4550 6000
	-1   0    0    -1  
$EndComp
$Comp
L Device:C C46
U 1 1 5E99D658
P 4300 6000
F 0 "C46" H 4350 6100 50  0000 L CNN
F 1 "10n" H 4350 5900 50  0000 L CNN
F 2 "Capacitor_SMD:C_0805_2012Metric" H 4338 5850 50  0001 C CNN
F 3 "~" H 4300 6000 50  0001 C CNN
	1    4300 6000
	-1   0    0    -1  
$EndComp
$Comp
L power:GND #PWR0133
U 1 1 5E99D66C
P 4050 6250
F 0 "#PWR0133" H 4050 6000 50  0001 C CNN
F 1 "GND" H 4055 6077 50  0000 C CNN
F 2 "" H 4050 6250 50  0001 C CNN
F 3 "" H 4050 6250 50  0001 C CNN
	1    4050 6250
	-1   0    0    -1  
$EndComp
Wire Wire Line
	4050 6200 4300 6200
Wire Wire Line
	4300 6200 4300 6150
Connection ~ 4050 6200
Wire Wire Line
	4300 6200 4550 6200
Wire Wire Line
	4550 6200 4550 6150
Connection ~ 4300 6200
Wire Wire Line
	4550 6200 4800 6200
Wire Wire Line
	4800 6200 4800 6150
Connection ~ 4550 6200
Wire Wire Line
	4050 6250 4050 6200
Wire Wire Line
	4300 5450 4300 5850
Connection ~ 4300 5450
Connection ~ 4550 5550
Wire Wire Line
	4800 5650 4800 5850
Connection ~ 4800 5650
Wire Wire Line
	1450 5550 1550 5550
Wire Wire Line
	4900 5650 4800 5650
Wire Wire Line
	4550 5550 4900 5550
Text GLabel 1450 5150 0    50   Input ~ 0
PG_CMB_1_5
Wire Wire Line
	4550 1550 4550 1850
Wire Wire Line
	4550 3550 4550 3850
Wire Wire Line
	4550 5550 4550 5850
$Comp
L SamacSys_Parts:74HC21DB,118 IC6
U 1 1 5ECB8FC5
P 7900 1150
F 0 "IC6" H 8550 1415 50  0000 C CNN
F 1 "74HC21DB,118" H 8550 1324 50  0000 C CNN
F 2 "SamacSys_Parts:SOP65P775X200-14N" H 9600 1250 50  0001 L CNN
F 3 "https://assets.nexperia.com/documents/data-sheet/74HC21.pdf" H 9600 1150 50  0001 L CNN
	1    7900 1150
	1    0    0    -1  
$EndComp
$Comp
L Device:C C51
U 1 1 5ECBF177
P 8500 3150
F 0 "C51" H 8615 3196 50  0000 L CNN
F 1 "100n" H 8615 3105 50  0000 L CNN
F 2 "Capacitor_SMD:C_0805_2012Metric" H 8538 3000 50  0001 C CNN
F 3 "~" H 8500 3150 50  0001 C CNN
	1    8500 3150
	1    0    0    -1  
$EndComp
Wire Wire Line
	8500 2950 8500 3000
Wire Wire Line
	8100 2950 8500 2950
Wire Wire Line
	8500 3350 8500 3300
Wire Wire Line
	8100 3350 8500 3350
Connection ~ 8100 2950
Connection ~ 8100 3350
$Comp
L power:+3V3 #PWR0143
U 1 1 5ECCF388
P 9300 1050
F 0 "#PWR0143" H 9300 900 50  0001 C CNN
F 1 "+3V3" V 9315 1178 50  0000 L CNN
F 2 "" H 9300 1050 50  0001 C CNN
F 3 "" H 9300 1050 50  0001 C CNN
	1    9300 1050
	1    0    0    -1  
$EndComp
Wire Wire Line
	9200 1150 9300 1150
Wire Wire Line
	9300 1150 9300 1050
$Comp
L power:GND #PWR0144
U 1 1 5ECDCE65
P 7800 1850
F 0 "#PWR0144" H 7800 1600 50  0001 C CNN
F 1 "GND" H 7805 1677 50  0000 C CNN
F 2 "" H 7800 1850 50  0001 C CNN
F 3 "" H 7800 1850 50  0001 C CNN
	1    7800 1850
	-1   0    0    -1  
$EndComp
Wire Wire Line
	7900 1750 7800 1750
Wire Wire Line
	7800 1750 7800 1850
Text GLabel 7750 1150 0    50   Input ~ 0
PG_CMB_1_1
Text GLabel 7750 1250 0    50   Input ~ 0
PG_CMB_1_2
Text GLabel 7750 1550 0    50   Input ~ 0
PG_CMB_1_4
Text GLabel 7750 1450 0    50   Input ~ 0
PG_CMB_1_3
NoConn ~ 9200 1450
NoConn ~ 7900 1350
Wire Wire Line
	7900 1650 7650 1650
Wire Wire Line
	7650 1650 7650 2150
Wire Wire Line
	7650 2150 9300 2150
Wire Wire Line
	9300 2150 9300 1650
Wire Wire Line
	9300 1650 9200 1650
Text GLabel 9450 1250 2    50   Input ~ 0
PG_CMB_1_5
Text GLabel 9450 1350 2    50   Input ~ 0
PG_CMB_1_6
Wire Wire Line
	9300 1150 9300 1550
Wire Wire Line
	9300 1550 9200 1550
Connection ~ 9300 1150
Wire Wire Line
	9200 1250 9450 1250
Wire Wire Line
	9200 1350 9450 1350
Wire Wire Line
	7900 1150 7750 1150
Wire Wire Line
	7750 1250 7900 1250
Wire Wire Line
	7750 1450 7900 1450
Wire Wire Line
	7750 1550 7900 1550
Text GLabel 9450 1750 2    50   Input ~ 0
PG_CMB
Wire Wire Line
	9450 1750 9200 1750
Text GLabel 1450 3450 0    50   Input ~ 0
PG_VC_11
Text GLabel 1450 3550 0    50   Input ~ 0
PG_VC_12
Text GLabel 4900 3350 2    50   Input ~ 0
PG_VC_21
Text GLabel 4900 3450 2    50   Input ~ 0
PG_VC_22
Text GLabel 4900 3550 2    50   Input ~ 0
PG_VC_31
Text GLabel 4900 3650 2    50   Input ~ 0
PG_VC_32
Wire Wire Line
	4050 3350 4900 3350
Wire Wire Line
	4900 3450 4300 3450
Text GLabel 1450 5250 0    50   Input ~ 0
PG_VC_41
Text GLabel 1450 5350 0    50   Input ~ 0
PG_VC_42
Text GLabel 1450 5450 0    50   Input ~ 0
PG_VC_51
Text GLabel 1450 5550 0    50   Input ~ 0
PG_VC_52
Text GLabel 4900 5450 2    50   Input ~ 0
PG_SPARE1
Text GLabel 4900 5550 2    50   Input ~ 0
PG_SPARE2
Text GLabel 4900 5650 2    50   Input ~ 0
PG_SPARE3
Wire Wire Line
	4300 5450 4900 5450
Wire Wire Line
	2500 3150 1450 3150
Wire Wire Line
	1450 3250 2050 3250
Wire Wire Line
	1450 3350 2300 3350
Wire Wire Line
	2050 3850 2050 3250
Connection ~ 2050 3250
Wire Wire Line
	2050 3250 2500 3250
Wire Wire Line
	2050 3000 2050 3250
Wire Wire Line
	2300 3000 2300 3350
Connection ~ 2300 3350
Wire Wire Line
	2300 3350 2500 3350
Wire Wire Line
	2300 3850 2300 3350
Wire Wire Line
	3850 4650 4300 4650
Wire Wire Line
	4050 5350 4050 6200
$EndSCHEMATC
