EESchema Schematic File Version 4
EELAYER 30 0
EELAYER END
$Descr A4 11693 8268
encoding utf-8
Sheet 2 8
Title "VolCtrlDR-Controller"
Date "2020-01-27"
Rev "0.4"
Comp "T5! DIY Audio"
Comment1 ""
Comment2 ""
Comment3 ""
Comment4 ""
$EndDescr
$Comp
L Device:CP C5
U 1 1 5DA5ECBB
P 6950 1700
F 0 "C5" H 7068 1746 50  0000 L CNN
F 1 "100u" H 7068 1655 50  0000 L CNN
F 2 "Capacitor_SMD:CP_Elec_10x10" H 6988 1550 50  0001 C CNN
F 3 "~" H 6950 1700 50  0001 C CNN
	1    6950 1700
	1    0    0    -1  
$EndComp
$Comp
L Device:CP C6
U 1 1 5DA5FA64
P 6950 3600
F 0 "C6" H 7068 3646 50  0000 L CNN
F 1 "100u" H 7068 3555 50  0000 L CNN
F 2 "Capacitor_SMD:CP_Elec_10x10" H 6988 3450 50  0001 C CNN
F 3 "~" H 6950 3600 50  0001 C CNN
	1    6950 3600
	1    0    0    -1  
$EndComp
$Comp
L power:GND #PWR0110
U 1 1 5DA6062D
P 6950 2050
F 0 "#PWR0110" H 6950 1800 50  0001 C CNN
F 1 "GND" H 6955 1877 50  0000 C CNN
F 2 "" H 6950 2050 50  0001 C CNN
F 3 "" H 6950 2050 50  0001 C CNN
	1    6950 2050
	1    0    0    -1  
$EndComp
$Comp
L power:GND #PWR0112
U 1 1 5DA60CB9
P 6950 4000
F 0 "#PWR0112" H 6950 3750 50  0001 C CNN
F 1 "GND" H 6955 3827 50  0000 C CNN
F 2 "" H 6950 4000 50  0001 C CNN
F 3 "" H 6950 4000 50  0001 C CNN
	1    6950 4000
	1    0    0    -1  
$EndComp
Wire Wire Line
	6950 1350 6950 1550
Wire Wire Line
	6950 3450 6950 3050
$Comp
L power:+5V #PWR0113
U 1 1 5DA66CB7
P 8850 3050
F 0 "#PWR0113" H 8850 2900 50  0001 C CNN
F 1 "+5V" V 8865 3178 50  0000 L CNN
F 2 "" H 8850 3050 50  0001 C CNN
F 3 "" H 8850 3050 50  0001 C CNN
	1    8850 3050
	0    1    1    0   
$EndComp
Wire Wire Line
	8850 3050 7650 3050
Connection ~ 6950 3050
$Comp
L power:+12V #PWR0114
U 1 1 5DA68340
P 7650 1350
F 0 "#PWR0114" H 7650 1200 50  0001 C CNN
F 1 "+12V" V 7665 1478 50  0000 L CNN
F 2 "" H 7650 1350 50  0001 C CNN
F 3 "" H 7650 1350 50  0001 C CNN
	1    7650 1350
	0    1    1    0   
$EndComp
Wire Wire Line
	7650 1350 7400 1350
Connection ~ 6950 1350
$Comp
L Regulator_Linear:MIC5504-3.3YM5 U1
U 1 1 5DA8E4D5
P 8150 3500
F 0 "U1" H 8150 3867 50  0000 C CNN
F 1 "MIC5504-3.3YM5" H 8150 3776 50  0000 C CNN
F 2 "Package_TO_SOT_SMD:SOT-23-5" H 8150 3100 50  0001 C CNN
F 3 "http://ww1.microchip.com/downloads/en/DeviceDoc/MIC550X.pdf" H 7900 3750 50  0001 C CNN
	1    8150 3500
	1    0    0    -1  
$EndComp
Wire Wire Line
	7750 3600 7650 3600
Wire Wire Line
	7650 3600 7650 3400
Connection ~ 7650 3050
Wire Wire Line
	7650 3050 6950 3050
Wire Wire Line
	7750 3400 7650 3400
Connection ~ 7650 3400
Wire Wire Line
	7650 3400 7650 3050
$Comp
L power:GND #PWR0101
U 1 1 5DA92A5C
P 8150 4000
F 0 "#PWR0101" H 8150 3750 50  0001 C CNN
F 1 "GND" H 8155 3827 50  0000 C CNN
F 2 "" H 8150 4000 50  0001 C CNN
F 3 "" H 8150 4000 50  0001 C CNN
	1    8150 4000
	1    0    0    -1  
$EndComp
Wire Wire Line
	8150 4000 8150 3800
$Comp
L power:+3V3 #PWR0102
U 1 1 5DA9412F
P 8850 3400
F 0 "#PWR0102" H 8850 3250 50  0001 C CNN
F 1 "+3V3" V 8865 3528 50  0000 L CNN
F 2 "" H 8850 3400 50  0001 C CNN
F 3 "" H 8850 3400 50  0001 C CNN
	1    8850 3400
	0    1    1    0   
$EndComp
Wire Wire Line
	8550 3400 8750 3400
$Comp
L Device:C C2
U 1 1 5DA9B2EE
P 8750 3750
F 0 "C2" H 8865 3796 50  0000 L CNN
F 1 "1u" H 8865 3705 50  0000 L CNN
F 2 "Capacitor_SMD:C_1206_3216Metric" H 8788 3600 50  0001 C CNN
F 3 "~" H 8750 3750 50  0001 C CNN
	1    8750 3750
	1    0    0    -1  
$EndComp
$Comp
L power:GND #PWR0103
U 1 1 5DA9B977
P 8750 4000
F 0 "#PWR0103" H 8750 3750 50  0001 C CNN
F 1 "GND" H 8755 3827 50  0000 C CNN
F 2 "" H 8750 4000 50  0001 C CNN
F 3 "" H 8750 4000 50  0001 C CNN
	1    8750 4000
	1    0    0    -1  
$EndComp
Wire Wire Line
	8750 3600 8750 3400
Connection ~ 8750 3400
Wire Wire Line
	8750 3400 8850 3400
Wire Wire Line
	8750 3900 8750 4000
$Comp
L Device:C C1
U 1 1 5DA9E24F
P 7650 3800
F 0 "C1" H 7765 3846 50  0000 L CNN
F 1 "1u" H 7765 3755 50  0000 L CNN
F 2 "Capacitor_SMD:C_1206_3216Metric" H 7688 3650 50  0001 C CNN
F 3 "~" H 7650 3800 50  0001 C CNN
	1    7650 3800
	1    0    0    -1  
$EndComp
$Comp
L power:GND #PWR0104
U 1 1 5DA9E998
P 7650 4000
F 0 "#PWR0104" H 7650 3750 50  0001 C CNN
F 1 "GND" H 7655 3827 50  0000 C CNN
F 2 "" H 7650 4000 50  0001 C CNN
F 3 "" H 7650 4000 50  0001 C CNN
	1    7650 4000
	1    0    0    -1  
$EndComp
Wire Wire Line
	7650 4000 7650 3950
Wire Wire Line
	7650 3650 7650 3600
Connection ~ 7650 3600
$Comp
L Connector:Screw_Terminal_01x02 J8
U 1 1 5F0CC6D9
P 1300 1600
F 0 "J8" H 1218 1275 50  0000 C CNN
F 1 "+12V5" H 1218 1366 50  0000 C CNN
F 2 "TerminalBlock_Phoenix:TerminalBlock_Phoenix_MKDS-1,5-2_1x02_P5.00mm_Horizontal" H 1300 1600 50  0001 C CNN
F 3 "~" H 1300 1600 50  0001 C CNN
	1    1300 1600
	-1   0    0    1   
$EndComp
$Comp
L SamacSys_Parts:LD29300P2MTR IC4
U 1 1 5F0CD38A
P 2800 1350
F 0 "IC4" H 3450 1615 50  0000 C CNN
F 1 "LD29300P2MTR" H 3450 1524 50  0000 C CNN
F 2 "SamacSys_Parts:LD29300P2MTR" H 3950 1450 50  0001 L CNN
F 3 "https://componentsearchengine.com/Datasheets/1/LD29300P2MTR.pdf" H 3950 1350 50  0001 L CNN
F 4 "STMicroelectronics LD29300P2MTR, LDO Voltage Regulator, Adjustable 3A, +/-1%, 2.5  14 Vin, 6-Pin P2PAK/A" H 3950 1250 50  0001 L CNN "Description"
F 5 "4.8" H 3950 1150 50  0001 L CNN "Height"
F 6 "511-LD29300P2MTR" H 3950 1050 50  0001 L CNN "Mouser Part Number"
F 7 "https://www.mouser.com/Search/Refine.aspx?Keyword=511-LD29300P2MTR" H 3950 950 50  0001 L CNN "Mouser Price/Stock"
F 8 "STMicroelectronics" H 3950 850 50  0001 L CNN "Manufacturer_Name"
F 9 "LD29300P2MTR" H 3950 750 50  0001 L CNN "Manufacturer_Part_Number"
	1    2800 1350
	1    0    0    -1  
$EndComp
$Comp
L Connector:Screw_Terminal_01x02 J10
U 1 1 5F0CE8E3
P 5050 1600
F 0 "J10" H 5130 1592 50  0000 L CNN
F 1 "+12V" H 5130 1501 50  0000 L CNN
F 2 "TerminalBlock_Phoenix:TerminalBlock_Phoenix_MKDS-1,5-2_1x02_P5.00mm_Horizontal" H 5050 1600 50  0001 C CNN
F 3 "~" H 5050 1600 50  0001 C CNN
	1    5050 1600
	1    0    0    1   
$EndComp
$Comp
L power:GND #PWR0105
U 1 1 5F0CF710
P 1600 2250
F 0 "#PWR0105" H 1600 2000 50  0001 C CNN
F 1 "GND" H 1605 2077 50  0000 C CNN
F 2 "" H 1600 2250 50  0001 C CNN
F 3 "" H 1600 2250 50  0001 C CNN
	1    1600 2250
	1    0    0    -1  
$EndComp
$Comp
L power:GND #PWR0106
U 1 1 5F0CFB11
P 2750 1550
F 0 "#PWR0106" H 2750 1300 50  0001 C CNN
F 1 "GND" V 2755 1422 50  0000 R CNN
F 2 "" H 2750 1550 50  0001 C CNN
F 3 "" H 2750 1550 50  0001 C CNN
	1    2750 1550
	0    1    1    0   
$EndComp
$Comp
L power:GND #PWR0134
U 1 1 5F0CFF86
P 4200 1450
F 0 "#PWR0134" H 4200 1200 50  0001 C CNN
F 1 "GND" H 4205 1277 50  0000 C CNN
F 2 "" H 4200 1450 50  0001 C CNN
F 3 "" H 4200 1450 50  0001 C CNN
	1    4200 1450
	1    0    0    -1  
$EndComp
Wire Wire Line
	4200 1350 4100 1350
Wire Wire Line
	2800 1350 2700 1350
Wire Wire Line
	2700 1350 2700 1450
Wire Wire Line
	2700 1450 2800 1450
Wire Wire Line
	2700 1350 1800 1350
Wire Wire Line
	1600 1350 1600 1500
Wire Wire Line
	1600 1500 1500 1500
Connection ~ 2700 1350
Wire Wire Line
	1500 1600 1600 1600
Wire Wire Line
	1600 1600 1600 2200
Wire Wire Line
	2750 1550 2800 1550
$Comp
L Device:R R28
U 1 1 5F0D4364
P 2700 2000
F 0 "R28" H 2770 2046 50  0000 L CNN
F 1 "4k7" H 2770 1955 50  0000 L CNN
F 2 "Resistor_SMD:R_0805_2012Metric" V 2630 2000 50  0001 C CNN
F 3 "~" H 2700 2000 50  0001 C CNN
	1    2700 2000
	1    0    0    -1  
$EndComp
$Comp
L power:GND #PWR0135
U 1 1 5F0D480B
P 2700 2250
F 0 "#PWR0135" H 2700 2000 50  0001 C CNN
F 1 "GND" H 2705 2077 50  0000 C CNN
F 2 "" H 2700 2250 50  0001 C CNN
F 3 "" H 2700 2250 50  0001 C CNN
	1    2700 2250
	1    0    0    -1  
$EndComp
Wire Wire Line
	2700 2150 2700 2250
Wire Wire Line
	2800 1750 2700 1750
Wire Wire Line
	2700 1750 2700 1850
$Comp
L Device:R_POT RV1
U 1 1 5F0D6A81
P 2300 1750
F 0 "RV1" V 2093 1750 50  0000 C CNN
F 1 "100k" V 2184 1750 50  0000 C CNN
F 2 "Potentiometer_THT:Potentiometer_Bourns_3296Y_Vertical" H 2300 1750 50  0001 C CNN
F 3 "~" H 2300 1750 50  0001 C CNN
	1    2300 1750
	0    1    1    0   
$EndComp
Wire Wire Line
	2450 1750 2700 1750
Connection ~ 2700 1750
Wire Wire Line
	2800 1650 2550 1650
Wire Wire Line
	2550 1650 2550 2000
Wire Wire Line
	2550 2000 2300 2000
Wire Wire Line
	2300 2000 2300 1900
Wire Wire Line
	2550 2000 2550 2200
Wire Wire Line
	2550 2200 4450 2200
Wire Wire Line
	4750 2200 4750 1600
Wire Wire Line
	4750 1600 4850 1600
Connection ~ 2550 2000
Wire Wire Line
	4200 1450 4200 1350
Wire Wire Line
	4200 1350 4450 1350
Wire Wire Line
	4750 1350 4750 1500
Wire Wire Line
	4750 1500 4850 1500
Connection ~ 4200 1350
$Comp
L Device:C C13
U 1 1 5F0DC69C
P 4450 1750
F 0 "C13" H 4565 1796 50  0000 L CNN
F 1 "4u7" H 4565 1705 50  0000 L CNN
F 2 "Capacitor_SMD:C_1206_3216Metric" H 4488 1600 50  0001 C CNN
F 3 "~" H 4450 1750 50  0001 C CNN
	1    4450 1750
	1    0    0    -1  
$EndComp
Wire Wire Line
	4450 1600 4450 1350
Connection ~ 4450 1350
Wire Wire Line
	4450 1350 4750 1350
Wire Wire Line
	4450 1900 4450 2200
Connection ~ 4450 2200
Wire Wire Line
	4450 2200 4750 2200
$Comp
L Device:C C11
U 1 1 5F0DF3F1
P 1800 1750
F 0 "C11" H 1915 1796 50  0000 L CNN
F 1 "4u7" H 1915 1705 50  0000 L CNN
F 2 "Capacitor_SMD:C_1206_3216Metric" H 1838 1600 50  0001 C CNN
F 3 "~" H 1800 1750 50  0001 C CNN
	1    1800 1750
	1    0    0    -1  
$EndComp
Wire Wire Line
	1800 1600 1800 1350
Connection ~ 1800 1350
Wire Wire Line
	1800 1350 1600 1350
Wire Wire Line
	1800 1900 1800 2200
Wire Wire Line
	1800 2200 1600 2200
Connection ~ 1600 2200
Wire Wire Line
	1600 2200 1600 2250
NoConn ~ 2150 1750
$Comp
L Connector:Screw_Terminal_01x02 J9
U 1 1 5F0E90A3
P 1300 3350
F 0 "J9" H 1218 3025 50  0000 C CNN
F 1 "+5V5" H 1218 3116 50  0000 C CNN
F 2 "TerminalBlock_Phoenix:TerminalBlock_Phoenix_MKDS-1,5-2_1x02_P5.00mm_Horizontal" H 1300 3350 50  0001 C CNN
F 3 "~" H 1300 3350 50  0001 C CNN
	1    1300 3350
	-1   0    0    1   
$EndComp
$Comp
L SamacSys_Parts:LD29300P2MTR IC5
U 1 1 5F0E90B3
P 2800 3100
F 0 "IC5" H 3450 3365 50  0000 C CNN
F 1 "LD39300PT-R" H 3450 3274 50  0000 C CNN
F 2 "SamacSys_Parts:LD29300P2MTR" H 3950 3200 50  0001 L CNN
F 3 "https://componentsearchengine.com/Datasheets/1/LD29300P2MTR.pdf" H 3950 3100 50  0001 L CNN
F 4 "STMicroelectronics LD29300P2MTR, LDO Voltage Regulator, Adjustable 3A, +/-1%, 2.5  14 Vin, 6-Pin P2PAK/A" H 3950 3000 50  0001 L CNN "Description"
F 5 "4.8" H 3950 2900 50  0001 L CNN "Height"
F 6 "511-LD29300P2MTR" H 3950 2800 50  0001 L CNN "Mouser Part Number"
F 7 "https://www.mouser.com/Search/Refine.aspx?Keyword=511-LD29300P2MTR" H 3950 2700 50  0001 L CNN "Mouser Price/Stock"
F 8 "STMicroelectronics" H 3950 2600 50  0001 L CNN "Manufacturer_Name"
F 9 "LD29300P2MTR" H 3950 2500 50  0001 L CNN "Manufacturer_Part_Number"
	1    2800 3100
	1    0    0    -1  
$EndComp
$Comp
L Connector:Screw_Terminal_01x02 J11
U 1 1 5F0E90BD
P 5050 3250
F 0 "J11" H 5130 3242 50  0000 L CNN
F 1 "+5V" H 5130 3151 50  0000 L CNN
F 2 "TerminalBlock_Phoenix:TerminalBlock_Phoenix_MKDS-1,5-2_1x02_P5.00mm_Horizontal" H 5050 3250 50  0001 C CNN
F 3 "~" H 5050 3250 50  0001 C CNN
	1    5050 3250
	1    0    0    -1  
$EndComp
$Comp
L power:GND #PWR0136
U 1 1 5F0E90C7
P 1600 4000
F 0 "#PWR0136" H 1600 3750 50  0001 C CNN
F 1 "GND" H 1605 3827 50  0000 C CNN
F 2 "" H 1600 4000 50  0001 C CNN
F 3 "" H 1600 4000 50  0001 C CNN
	1    1600 4000
	1    0    0    -1  
$EndComp
$Comp
L power:GND #PWR0137
U 1 1 5F0E90D1
P 2750 3300
F 0 "#PWR0137" H 2750 3050 50  0001 C CNN
F 1 "GND" V 2755 3172 50  0000 R CNN
F 2 "" H 2750 3300 50  0001 C CNN
F 3 "" H 2750 3300 50  0001 C CNN
	1    2750 3300
	0    1    1    0   
$EndComp
$Comp
L power:GND #PWR0138
U 1 1 5F0E90DB
P 4200 3200
F 0 "#PWR0138" H 4200 2950 50  0001 C CNN
F 1 "GND" H 4205 3027 50  0000 C CNN
F 2 "" H 4200 3200 50  0001 C CNN
F 3 "" H 4200 3200 50  0001 C CNN
	1    4200 3200
	1    0    0    -1  
$EndComp
Wire Wire Line
	4200 3100 4100 3100
Wire Wire Line
	2800 3100 2700 3100
Wire Wire Line
	2700 3100 2700 3200
Wire Wire Line
	2700 3200 2800 3200
Wire Wire Line
	2700 3100 1800 3100
Wire Wire Line
	1600 3100 1600 3250
Wire Wire Line
	1600 3250 1500 3250
Connection ~ 2700 3100
Wire Wire Line
	1500 3350 1600 3350
Wire Wire Line
	1600 3350 1600 3950
Wire Wire Line
	2750 3300 2800 3300
$Comp
L Device:R R29
U 1 1 5F0E90F0
P 2700 3750
F 0 "R29" H 2770 3796 50  0000 L CNN
F 1 "4k7" H 2770 3705 50  0000 L CNN
F 2 "Resistor_SMD:R_0805_2012Metric" V 2630 3750 50  0001 C CNN
F 3 "~" H 2700 3750 50  0001 C CNN
	1    2700 3750
	1    0    0    -1  
$EndComp
$Comp
L power:GND #PWR0141
U 1 1 5F0E90FA
P 2700 4000
F 0 "#PWR0141" H 2700 3750 50  0001 C CNN
F 1 "GND" H 2705 3827 50  0000 C CNN
F 2 "" H 2700 4000 50  0001 C CNN
F 3 "" H 2700 4000 50  0001 C CNN
	1    2700 4000
	1    0    0    -1  
$EndComp
Wire Wire Line
	2700 3900 2700 4000
Wire Wire Line
	2800 3500 2700 3500
Wire Wire Line
	2700 3500 2700 3600
$Comp
L Device:R_POT RV2
U 1 1 5F0E9107
P 2300 3500
F 0 "RV2" V 2093 3500 50  0000 C CNN
F 1 "100k" V 2184 3500 50  0000 C CNN
F 2 "Potentiometer_THT:Potentiometer_Bourns_3296Y_Vertical" H 2300 3500 50  0001 C CNN
F 3 "~" H 2300 3500 50  0001 C CNN
	1    2300 3500
	0    1    1    0   
$EndComp
Wire Wire Line
	2450 3500 2700 3500
Connection ~ 2700 3500
Wire Wire Line
	2800 3400 2550 3400
Wire Wire Line
	2550 3400 2550 3750
Wire Wire Line
	2550 3750 2300 3750
Wire Wire Line
	2300 3750 2300 3650
Wire Wire Line
	2550 3750 2550 3950
Wire Wire Line
	2550 3950 4450 3950
Wire Wire Line
	4750 3950 4750 3350
Wire Wire Line
	4750 3350 4850 3350
Connection ~ 2550 3750
Wire Wire Line
	4200 3200 4200 3100
Wire Wire Line
	4200 3100 4450 3100
Wire Wire Line
	4750 3100 4750 3250
Wire Wire Line
	4750 3250 4850 3250
Connection ~ 4200 3100
$Comp
L Device:C C49
U 1 1 5F0E9121
P 4450 3500
F 0 "C49" H 4565 3546 50  0000 L CNN
F 1 "4u7" H 4565 3455 50  0000 L CNN
F 2 "Capacitor_SMD:C_1206_3216Metric" H 4488 3350 50  0001 C CNN
F 3 "~" H 4450 3500 50  0001 C CNN
	1    4450 3500
	1    0    0    -1  
$EndComp
Wire Wire Line
	4450 3350 4450 3100
Connection ~ 4450 3100
Wire Wire Line
	4450 3100 4750 3100
Wire Wire Line
	4450 3650 4450 3950
Connection ~ 4450 3950
Wire Wire Line
	4450 3950 4750 3950
$Comp
L Device:C C12
U 1 1 5F0E9131
P 1800 3500
F 0 "C12" H 1915 3546 50  0000 L CNN
F 1 "4u7" H 1915 3455 50  0000 L CNN
F 2 "Capacitor_SMD:C_1206_3216Metric" H 1838 3350 50  0001 C CNN
F 3 "~" H 1800 3500 50  0001 C CNN
	1    1800 3500
	1    0    0    -1  
$EndComp
Wire Wire Line
	1800 3350 1800 3100
Connection ~ 1800 3100
Wire Wire Line
	1800 3100 1600 3100
Wire Wire Line
	1800 3650 1800 3950
Wire Wire Line
	1800 3950 1600 3950
Connection ~ 1600 3950
Wire Wire Line
	1600 3950 1600 4000
NoConn ~ 2150 3500
$Comp
L Connector:Screw_Terminal_01x02 J12
U 1 1 5F1093C8
P 6050 1600
F 0 "J12" H 5968 1275 50  0000 C CNN
F 1 "+12V" H 5968 1366 50  0000 C CNN
F 2 "TerminalBlock_Phoenix:TerminalBlock_Phoenix_MKDS-1,5-2_1x02_P5.00mm_Horizontal" H 6050 1600 50  0001 C CNN
F 3 "~" H 6050 1600 50  0001 C CNN
	1    6050 1600
	-1   0    0    1   
$EndComp
Wire Wire Line
	6350 1350 6350 1500
Wire Wire Line
	6350 1500 6250 1500
Wire Wire Line
	6350 1350 6950 1350
Wire Wire Line
	6250 1600 6350 1600
Wire Wire Line
	6350 1600 6350 1950
Wire Wire Line
	6350 1950 6950 1950
Wire Wire Line
	6950 1850 6950 1950
Connection ~ 6950 1950
Wire Wire Line
	6950 1950 6950 2050
$Comp
L Connector:Screw_Terminal_01x02 J13
U 1 1 5F139542
P 6050 3350
F 0 "J13" H 5968 3025 50  0000 C CNN
F 1 "+5V" H 5968 3116 50  0000 C CNN
F 2 "TerminalBlock_Phoenix:TerminalBlock_Phoenix_MKDS-1,5-2_1x02_P5.00mm_Horizontal" H 6050 3350 50  0001 C CNN
F 3 "~" H 6050 3350 50  0001 C CNN
	1    6050 3350
	-1   0    0    1   
$EndComp
Wire Wire Line
	6950 3750 6950 3900
Wire Wire Line
	6250 3350 6400 3350
Wire Wire Line
	6400 3350 6400 3900
Wire Wire Line
	6400 3900 6950 3900
Connection ~ 6950 3900
Wire Wire Line
	6950 3900 6950 4000
Wire Wire Line
	6250 3250 6400 3250
Wire Wire Line
	6400 3250 6400 3050
Wire Wire Line
	6400 3050 6950 3050
$Comp
L Mechanical:MountingHole H4
U 1 1 5F369AA7
P 1000 7250
F 0 "H4" H 1100 7296 50  0000 L CNN
F 1 "Hole" H 1100 7205 50  0000 L CNN
F 2 "MountingHole:MountingHole_3.2mm_M3" H 1000 7250 50  0001 C CNN
F 3 "~" H 1000 7250 50  0001 C CNN
	1    1000 7250
	1    0    0    -1  
$EndComp
$Comp
L Mechanical:MountingHole H3
U 1 1 5F36A0DC
P 1000 7050
F 0 "H3" H 1100 7096 50  0000 L CNN
F 1 "Hole" H 1100 7005 50  0000 L CNN
F 2 "MountingHole:MountingHole_3.2mm_M3" H 1000 7050 50  0001 C CNN
F 3 "~" H 1000 7050 50  0001 C CNN
	1    1000 7050
	1    0    0    -1  
$EndComp
$Comp
L Mechanical:MountingHole H2
U 1 1 5F36A2F9
P 1000 6850
F 0 "H2" H 1100 6896 50  0000 L CNN
F 1 "Hole" H 1100 6805 50  0000 L CNN
F 2 "MountingHole:MountingHole_3.2mm_M3" H 1000 6850 50  0001 C CNN
F 3 "~" H 1000 6850 50  0001 C CNN
	1    1000 6850
	1    0    0    -1  
$EndComp
$Comp
L Mechanical:MountingHole H1
U 1 1 5F36A5B6
P 1000 6650
F 0 "H1" H 1100 6696 50  0000 L CNN
F 1 "Hole" H 1100 6605 50  0000 L CNN
F 2 "MountingHole:MountingHole_3.2mm_M3" H 1000 6650 50  0001 C CNN
F 3 "~" H 1000 6650 50  0001 C CNN
	1    1000 6650
	1    0    0    -1  
$EndComp
$Comp
L Mechanical:MountingHole H8
U 1 1 5F36A962
P 1400 7250
F 0 "H8" H 1500 7296 50  0000 L CNN
F 1 "Hole" H 1500 7205 50  0000 L CNN
F 2 "MountingHole:MountingHole_3.2mm_M3" H 1400 7250 50  0001 C CNN
F 3 "~" H 1400 7250 50  0001 C CNN
	1    1400 7250
	1    0    0    -1  
$EndComp
$Comp
L Mechanical:MountingHole H7
U 1 1 5F36A96C
P 1400 7050
F 0 "H7" H 1500 7096 50  0000 L CNN
F 1 "Hole" H 1500 7005 50  0000 L CNN
F 2 "MountingHole:MountingHole_3.2mm_M3" H 1400 7050 50  0001 C CNN
F 3 "~" H 1400 7050 50  0001 C CNN
	1    1400 7050
	1    0    0    -1  
$EndComp
$Comp
L Mechanical:MountingHole H6
U 1 1 5F36A976
P 1400 6850
F 0 "H6" H 1500 6896 50  0000 L CNN
F 1 "Hole" H 1500 6805 50  0000 L CNN
F 2 "MountingHole:MountingHole_3.2mm_M3" H 1400 6850 50  0001 C CNN
F 3 "~" H 1400 6850 50  0001 C CNN
	1    1400 6850
	1    0    0    -1  
$EndComp
$Comp
L Mechanical:MountingHole H5
U 1 1 5F36A980
P 1400 6650
F 0 "H5" H 1500 6696 50  0000 L CNN
F 1 "Hole" H 1500 6605 50  0000 L CNN
F 2 "MountingHole:MountingHole_3.2mm_M3" H 1400 6650 50  0001 C CNN
F 3 "~" H 1400 6650 50  0001 C CNN
	1    1400 6650
	1    0    0    -1  
$EndComp
$Comp
L Mechanical:MountingHole H12
U 1 1 5F36EBB6
P 1800 7250
F 0 "H12" H 1900 7296 50  0000 L CNN
F 1 "Hole" H 1900 7205 50  0000 L CNN
F 2 "MountingHole:MountingHole_3.2mm_M3" H 1800 7250 50  0001 C CNN
F 3 "~" H 1800 7250 50  0001 C CNN
	1    1800 7250
	1    0    0    -1  
$EndComp
$Comp
L Mechanical:MountingHole H11
U 1 1 5F36EBC0
P 1800 7050
F 0 "H11" H 1900 7096 50  0000 L CNN
F 1 "Hole" H 1900 7005 50  0000 L CNN
F 2 "MountingHole:MountingHole_3.2mm_M3" H 1800 7050 50  0001 C CNN
F 3 "~" H 1800 7050 50  0001 C CNN
	1    1800 7050
	1    0    0    -1  
$EndComp
$Comp
L Mechanical:MountingHole H10
U 1 1 5F36EBCA
P 1800 6850
F 0 "H10" H 1900 6896 50  0000 L CNN
F 1 "Hole" H 1900 6805 50  0000 L CNN
F 2 "MountingHole:MountingHole_3.2mm_M3" H 1800 6850 50  0001 C CNN
F 3 "~" H 1800 6850 50  0001 C CNN
	1    1800 6850
	1    0    0    -1  
$EndComp
$Comp
L Mechanical:MountingHole H9
U 1 1 5F36EBD4
P 1800 6650
F 0 "H9" H 1900 6696 50  0000 L CNN
F 1 "Hole" H 1900 6605 50  0000 L CNN
F 2 "MountingHole:MountingHole_3.2mm_M3" H 1800 6650 50  0001 C CNN
F 3 "~" H 1800 6650 50  0001 C CNN
	1    1800 6650
	1    0    0    -1  
$EndComp
$Comp
L Device:CP C57
U 1 1 5E2F0DE9
P 7400 1700
F 0 "C57" H 7518 1746 50  0000 L CNN
F 1 "100u" H 7518 1655 50  0000 L CNN
F 2 "Capacitor_SMD:CP_Elec_10x10" H 7438 1550 50  0001 C CNN
F 3 "~" H 7400 1700 50  0001 C CNN
	1    7400 1700
	1    0    0    -1  
$EndComp
Wire Wire Line
	7400 1550 7400 1350
Connection ~ 7400 1350
Wire Wire Line
	7400 1350 6950 1350
Wire Wire Line
	6950 1950 7400 1950
Wire Wire Line
	7400 1950 7400 1850
$Comp
L t-5:T5 e1
U 1 1 5E39984B
P 1400 6350
F 0 "e1" H 1400 6450 50  0001 C CNN
F 1 "T5" H 1400 6350 50  0001 C CNN
F 2 "T5_w11:T5_w11" H 1400 6350 50  0001 C CNN
F 3 "" H 1400 6350 50  0001 C CNN
	1    1400 6350
	1    0    0    -1  
$EndComp
$EndSCHEMATC
