EESchema Schematic File Version 4
EELAYER 30 0
EELAYER END
$Descr A4 11693 8268
encoding utf-8
Sheet 3 8
Title "VolCtrlDR-Controller"
Date "2020-01-27"
Rev "0.4"
Comp "T5! DIY Audio"
Comment1 ""
Comment2 ""
Comment3 ""
Comment4 ""
$EndDescr
$Comp
L Connector_Generic:Conn_02x20_Odd_Even J1
U 1 1 5DD8CFD1
P 2550 4450
F 0 "J1" H 2600 5567 50  0000 C CNN
F 1 "TinkerBoardIO" H 2600 5476 50  0000 C CNN
F 2 "Connector_PinHeader_2.54mm:PinHeader_2x20_P2.54mm_Vertical" H 2550 4450 50  0001 C CNN
F 3 "~" H 2550 4450 50  0001 C CNN
	1    2550 4450
	1    0    0    -1  
$EndComp
NoConn ~ 2350 3550
NoConn ~ 2350 3850
NoConn ~ 2850 3850
NoConn ~ 2850 3950
NoConn ~ 2850 4050
NoConn ~ 2350 4050
NoConn ~ 2350 4150
NoConn ~ 2350 4250
NoConn ~ 2350 4350
NoConn ~ 2350 4450
NoConn ~ 2350 4550
NoConn ~ 2350 4650
NoConn ~ 2350 4950
NoConn ~ 2350 5050
NoConn ~ 2850 5450
NoConn ~ 2850 5250
NoConn ~ 2850 5050
NoConn ~ 2850 4750
NoConn ~ 2850 4650
NoConn ~ 2850 4550
NoConn ~ 2850 4250
NoConn ~ 2850 4350
$Comp
L power:GND #PWR0107
U 1 1 5DD8FE86
P 2900 3750
F 0 "#PWR0107" H 2900 3500 50  0001 C CNN
F 1 "GND" V 2905 3622 50  0000 R CNN
F 2 "" H 2900 3750 50  0001 C CNN
F 3 "" H 2900 3750 50  0001 C CNN
	1    2900 3750
	0    -1   -1   0   
$EndComp
$Comp
L power:GND #PWR0108
U 1 1 5DD90515
P 2900 4150
F 0 "#PWR0108" H 2900 3900 50  0001 C CNN
F 1 "GND" V 2905 4022 50  0000 R CNN
F 2 "" H 2900 4150 50  0001 C CNN
F 3 "" H 2900 4150 50  0001 C CNN
	1    2900 4150
	0    -1   -1   0   
$EndComp
$Comp
L power:GND #PWR0109
U 1 1 5DD9079D
P 2900 4450
F 0 "#PWR0109" H 2900 4200 50  0001 C CNN
F 1 "GND" V 2905 4322 50  0000 R CNN
F 2 "" H 2900 4450 50  0001 C CNN
F 3 "" H 2900 4450 50  0001 C CNN
	1    2900 4450
	0    -1   -1   0   
$EndComp
$Comp
L power:GND #PWR0111
U 1 1 5DD90A85
P 2900 4950
F 0 "#PWR0111" H 2900 4700 50  0001 C CNN
F 1 "GND" V 2905 4822 50  0000 R CNN
F 2 "" H 2900 4950 50  0001 C CNN
F 3 "" H 2900 4950 50  0001 C CNN
	1    2900 4950
	0    -1   -1   0   
$EndComp
$Comp
L power:GND #PWR0115
U 1 1 5DD90F2A
P 2300 5450
F 0 "#PWR0115" H 2300 5200 50  0001 C CNN
F 1 "GND" V 2305 5322 50  0000 R CNN
F 2 "" H 2300 5450 50  0001 C CNN
F 3 "" H 2300 5450 50  0001 C CNN
	1    2300 5450
	0    1    1    0   
$EndComp
$Comp
L power:GND #PWR0116
U 1 1 5DD91179
P 2300 4700
F 0 "#PWR0116" H 2300 4450 50  0001 C CNN
F 1 "GND" V 2305 4572 50  0000 R CNN
F 2 "" H 2300 4700 50  0001 C CNN
F 3 "" H 2300 4700 50  0001 C CNN
	1    2300 4700
	0    1    1    0   
$EndComp
$Comp
L power:GND #PWR0117
U 1 1 5DD9147B
P 2300 3950
F 0 "#PWR0117" H 2300 3700 50  0001 C CNN
F 1 "GND" V 2305 3822 50  0000 R CNN
F 2 "" H 2300 3950 50  0001 C CNN
F 3 "" H 2300 3950 50  0001 C CNN
	1    2300 3950
	0    1    1    0   
$EndComp
$Comp
L power:+5V #PWR0118
U 1 1 5DD91915
P 3750 3550
F 0 "#PWR0118" H 3750 3400 50  0001 C CNN
F 1 "+5V" V 3765 3678 50  0000 L CNN
F 2 "" H 3750 3550 50  0001 C CNN
F 3 "" H 3750 3550 50  0001 C CNN
	1    3750 3550
	0    1    1    0   
$EndComp
Wire Wire Line
	2900 3550 2850 3550
Wire Wire Line
	2900 3550 2900 3650
Wire Wire Line
	2900 3650 2850 3650
Connection ~ 2900 3550
Wire Wire Line
	2300 3950 2350 3950
Wire Wire Line
	2300 4700 2350 4750
Wire Wire Line
	2300 5450 2350 5450
Wire Wire Line
	2850 4950 2900 4950
Wire Wire Line
	2850 4150 2900 4150
Wire Wire Line
	2850 4450 2900 4450
$Comp
L power:GND #PWR0119
U 1 1 5DD9440C
P 2900 5150
F 0 "#PWR0119" H 2900 4900 50  0001 C CNN
F 1 "GND" V 2905 5022 50  0000 R CNN
F 2 "" H 2900 5150 50  0001 C CNN
F 3 "" H 2900 5150 50  0001 C CNN
	1    2900 5150
	0    -1   -1   0   
$EndComp
Wire Wire Line
	2900 5150 2850 5150
Wire Wire Line
	2900 3750 2850 3750
Wire Wire Line
	2350 3650 1600 3650
Wire Wire Line
	1500 3750 1900 3750
Wire Wire Line
	1500 4850 1900 4850
Wire Wire Line
	2850 4850 3850 4850
Wire Wire Line
	2350 5150 1950 5150
Wire Wire Line
	1950 5250 2350 5250
Wire Wire Line
	2350 5350 1950 5350
Wire Wire Line
	2850 5350 3250 5350
Text Label 1950 5150 0    50   ~ 0
RE_CLK
Text Label 1950 5250 0    50   ~ 0
RE_DATA
Text Label 1950 5350 0    50   ~ 0
RE_SW
$Comp
L power:+3V3 #PWR0120
U 1 1 5DD9B09A
P 1650 1350
F 0 "#PWR0120" H 1650 1200 50  0001 C CNN
F 1 "+3V3" H 1665 1523 50  0000 C CNN
F 2 "" H 1650 1350 50  0001 C CNN
F 3 "" H 1650 1350 50  0001 C CNN
	1    1650 1350
	1    0    0    -1  
$EndComp
$Comp
L Device:R R1
U 1 1 5DD9BB3D
P 1650 1600
F 0 "R1" H 1720 1646 50  0000 L CNN
F 1 "10k" H 1720 1555 50  0000 L CNN
F 2 "Resistor_SMD:R_0805_2012Metric" V 1580 1600 50  0001 C CNN
F 3 "~" H 1650 1600 50  0001 C CNN
	1    1650 1600
	1    0    0    -1  
$EndComp
$Comp
L Device:R R2
U 1 1 5DD9BEDA
P 1950 1600
F 0 "R2" H 2020 1646 50  0000 L CNN
F 1 "10k" H 2020 1555 50  0000 L CNN
F 2 "Resistor_SMD:R_0805_2012Metric" V 1880 1600 50  0001 C CNN
F 3 "~" H 1950 1600 50  0001 C CNN
	1    1950 1600
	1    0    0    -1  
$EndComp
Wire Wire Line
	1650 1350 1650 1400
Wire Wire Line
	1650 1400 1950 1400
Wire Wire Line
	1950 1400 1950 1450
Connection ~ 1650 1400
Wire Wire Line
	1650 1400 1650 1450
$Comp
L Device:R R3
U 1 1 5DD9ED4E
P 2250 1600
F 0 "R3" H 2320 1646 50  0000 L CNN
F 1 "10k" H 2320 1555 50  0000 L CNN
F 2 "Resistor_SMD:R_0805_2012Metric" V 2180 1600 50  0001 C CNN
F 3 "~" H 2250 1600 50  0001 C CNN
	1    2250 1600
	1    0    0    -1  
$EndComp
Wire Wire Line
	1950 1400 2250 1400
Wire Wire Line
	2250 1400 2250 1450
Connection ~ 1950 1400
$Comp
L Device:C C3
U 1 1 5DDA047A
P 1650 2250
F 0 "C3" H 1700 2350 50  0000 L CNN
F 1 "100n" H 1700 2150 50  0000 L CNN
F 2 "Capacitor_SMD:C_0805_2012Metric" H 1688 2100 50  0001 C CNN
F 3 "~" H 1650 2250 50  0001 C CNN
	1    1650 2250
	1    0    0    -1  
$EndComp
Wire Wire Line
	1650 1750 1650 2050
$Comp
L power:GND #PWR0121
U 1 1 5DDA0DEC
P 1650 2450
F 0 "#PWR0121" H 1650 2200 50  0001 C CNN
F 1 "GND" H 1655 2277 50  0000 C CNN
F 2 "" H 1650 2450 50  0001 C CNN
F 3 "" H 1650 2450 50  0001 C CNN
	1    1650 2450
	1    0    0    -1  
$EndComp
Wire Wire Line
	1650 2450 1650 2400
$Comp
L Device:C C4
U 1 1 5DDA1990
P 1950 2250
F 0 "C4" H 2000 2350 50  0000 L CNN
F 1 "100n" H 2000 2150 50  0000 L CNN
F 2 "Capacitor_SMD:C_0805_2012Metric" H 1988 2100 50  0001 C CNN
F 3 "~" H 1950 2250 50  0001 C CNN
	1    1950 2250
	1    0    0    -1  
$EndComp
$Comp
L power:GND #PWR0122
U 1 1 5DDA199B
P 1950 2450
F 0 "#PWR0122" H 1950 2200 50  0001 C CNN
F 1 "GND" H 1955 2277 50  0000 C CNN
F 2 "" H 1950 2450 50  0001 C CNN
F 3 "" H 1950 2450 50  0001 C CNN
	1    1950 2450
	1    0    0    -1  
$EndComp
Wire Wire Line
	1950 2450 1950 2400
$Comp
L Device:C C7
U 1 1 5DDA450E
P 2250 2250
F 0 "C7" H 2300 2350 50  0000 L CNN
F 1 "100n" H 2300 2150 50  0000 L CNN
F 2 "Capacitor_SMD:C_0805_2012Metric" H 2288 2100 50  0001 C CNN
F 3 "~" H 2250 2250 50  0001 C CNN
	1    2250 2250
	1    0    0    -1  
$EndComp
Wire Wire Line
	2250 1750 2250 1850
$Comp
L power:GND #PWR0123
U 1 1 5DDA4519
P 2250 2450
F 0 "#PWR0123" H 2250 2200 50  0001 C CNN
F 1 "GND" H 2255 2277 50  0000 C CNN
F 2 "" H 2250 2450 50  0001 C CNN
F 3 "" H 2250 2450 50  0001 C CNN
	1    2250 2450
	1    0    0    -1  
$EndComp
Wire Wire Line
	2250 2450 2250 2400
$Comp
L Connector_Generic:Conn_02x05_Odd_Even J2
U 1 1 5DDA561D
P 3100 1950
F 0 "J2" H 3150 2367 50  0000 C CNN
F 1 "RotaryEncoder" H 3150 2276 50  0000 C CNN
F 2 "Connector_PinHeader_2.54mm:PinHeader_2x05_P2.54mm_Vertical" H 3100 1950 50  0001 C CNN
F 3 "~" H 3100 1950 50  0001 C CNN
	1    3100 1950
	1    0    0    -1  
$EndComp
Wire Wire Line
	2250 1400 2800 1400
Wire Wire Line
	2800 1400 2800 1750
Wire Wire Line
	2800 1750 2900 1750
Connection ~ 2250 1400
Wire Wire Line
	2900 1850 2250 1850
Connection ~ 2250 1850
Wire Wire Line
	2250 1850 2250 2100
Wire Wire Line
	2900 1950 1950 1950
Connection ~ 1950 1950
Wire Wire Line
	1950 1950 1950 2100
Wire Wire Line
	2900 2050 1650 2050
Connection ~ 1650 2050
Wire Wire Line
	1650 2050 1650 2100
$Comp
L power:GND #PWR0124
U 1 1 5DDA8EC9
P 2800 2450
F 0 "#PWR0124" H 2800 2200 50  0001 C CNN
F 1 "GND" H 2805 2277 50  0000 C CNN
F 2 "" H 2800 2450 50  0001 C CNN
F 3 "" H 2800 2450 50  0001 C CNN
	1    2800 2450
	1    0    0    -1  
$EndComp
Wire Wire Line
	2900 2150 2800 2150
Wire Wire Line
	2800 2150 2800 2300
Wire Wire Line
	2800 2300 3450 2300
Wire Wire Line
	3450 2300 3450 2150
Wire Wire Line
	3450 2150 3400 2150
Connection ~ 2800 2300
Wire Wire Line
	2800 2300 2800 2450
Wire Wire Line
	3450 2150 3450 2050
Wire Wire Line
	3450 2050 3400 2050
Connection ~ 3450 2150
Wire Wire Line
	3450 2050 3450 1950
Wire Wire Line
	3450 1950 3400 1950
Connection ~ 3450 2050
Wire Wire Line
	3450 1950 3450 1850
Wire Wire Line
	3450 1850 3400 1850
Connection ~ 3450 1950
Wire Wire Line
	3450 1850 3450 1750
Wire Wire Line
	3450 1750 3400 1750
Connection ~ 3450 1850
Wire Wire Line
	1950 1750 1950 1950
Wire Wire Line
	2250 1850 1200 1850
Wire Wire Line
	1200 1950 1950 1950
Wire Wire Line
	1650 2050 1200 2050
Text Label 1200 1850 0    50   ~ 0
RE_CLK
Text Label 1200 1950 0    50   ~ 0
RE_DATA
Text Label 1200 2050 0    50   ~ 0
RE_SW
Wire Notes Line
	950  1000 3650 1000
Wire Notes Line
	3650 1000 3650 2850
Wire Notes Line
	3650 2850 950  2850
Wire Notes Line
	950  2850 950  1000
Text Notes 950  950  0    50   ~ 0
Rotary Encoder
Wire Notes Line
	950  3150 4650 3150
Wire Notes Line
	4650 3150 4650 5750
Wire Notes Line
	4650 5750 950  5750
Wire Notes Line
	950  5750 950  3150
Text Notes 950  3100 0    50   ~ 0
Tinker Board GPIOs\n
Text GLabel 1500 3650 0    50   Input ~ 0
I2C1_SDA
Text GLabel 1500 3750 0    50   Input ~ 0
I2C1_SCL
Text GLabel 1500 4850 0    50   Input ~ 0
I2C4_SDA
Text GLabel 4100 4850 2    50   Input ~ 0
I2C4_SCL
Text GLabel 3250 5350 2    50   Input ~ 0
PG_CMB
$Comp
L Device:C C50
U 1 1 5F1789E5
P 3400 3800
F 0 "C50" H 3515 3846 50  0000 L CNN
F 1 "100n" H 3515 3755 50  0000 L CNN
F 2 "Capacitor_SMD:C_0805_2012Metric" H 3438 3650 50  0001 C CNN
F 3 "~" H 3400 3800 50  0001 C CNN
	1    3400 3800
	1    0    0    -1  
$EndComp
Wire Wire Line
	3750 3550 3400 3550
Wire Wire Line
	3400 3650 3400 3550
Connection ~ 3400 3550
Wire Wire Line
	3400 3550 2900 3550
$Comp
L power:GND #PWR0142
U 1 1 5F186BF1
P 3400 4050
F 0 "#PWR0142" H 3400 3800 50  0001 C CNN
F 1 "GND" V 3405 3922 50  0000 R CNN
F 2 "" H 3400 4050 50  0001 C CNN
F 3 "" H 3400 4050 50  0001 C CNN
	1    3400 4050
	1    0    0    -1  
$EndComp
Wire Wire Line
	3400 4050 3400 3950
$Comp
L power:+3V3 #PWR0197
U 1 1 5E3291F0
P 3850 4200
F 0 "#PWR0197" H 3850 4050 50  0001 C CNN
F 1 "+3V3" H 3865 4373 50  0000 C CNN
F 2 "" H 3850 4200 50  0001 C CNN
F 3 "" H 3850 4200 50  0001 C CNN
	1    3850 4200
	1    0    0    -1  
$EndComp
$Comp
L Device:R R34
U 1 1 5E329D5D
P 3850 4500
F 0 "R34" H 3920 4546 50  0000 L CNN
F 1 "2k2" H 3920 4455 50  0000 L CNN
F 2 "Resistor_SMD:R_0805_2012Metric" V 3780 4500 50  0001 C CNN
F 3 "~" H 3850 4500 50  0001 C CNN
	1    3850 4500
	1    0    0    -1  
$EndComp
Wire Wire Line
	3850 4200 3850 4350
Wire Wire Line
	3850 4650 3850 4850
Connection ~ 3850 4850
Wire Wire Line
	3850 4850 4100 4850
$Comp
L power:+3V3 #PWR0198
U 1 1 5E32FFEB
P 1400 4300
F 0 "#PWR0198" H 1400 4150 50  0001 C CNN
F 1 "+3V3" V 1415 4428 50  0000 L CNN
F 2 "" H 1400 4300 50  0001 C CNN
F 3 "" H 1400 4300 50  0001 C CNN
	1    1400 4300
	0    -1   -1   0   
$EndComp
$Comp
L Device:R R33
U 1 1 5E32FFF5
P 1900 4500
F 0 "R33" H 1970 4546 50  0000 L CNN
F 1 "2k2" H 1970 4455 50  0000 L CNN
F 2 "Resistor_SMD:R_0805_2012Metric" V 1830 4500 50  0001 C CNN
F 3 "~" H 1900 4500 50  0001 C CNN
	1    1900 4500
	1    0    0    -1  
$EndComp
Wire Wire Line
	1900 4650 1900 4850
Connection ~ 1900 4850
Wire Wire Line
	1900 4850 2350 4850
$Comp
L Device:R R32
U 1 1 5E3407FD
P 1900 4100
F 0 "R32" H 1970 4146 50  0000 L CNN
F 1 "2k2" H 1970 4055 50  0000 L CNN
F 2 "Resistor_SMD:R_0805_2012Metric" V 1830 4100 50  0001 C CNN
F 3 "~" H 1900 4100 50  0001 C CNN
	1    1900 4100
	1    0    0    -1  
$EndComp
$Comp
L Device:R R31
U 1 1 5E34D514
P 1600 4100
F 0 "R31" H 1670 4146 50  0000 L CNN
F 1 "2k2" H 1670 4055 50  0000 L CNN
F 2 "Resistor_SMD:R_0805_2012Metric" V 1530 4100 50  0001 C CNN
F 3 "~" H 1600 4100 50  0001 C CNN
	1    1600 4100
	1    0    0    -1  
$EndComp
Wire Wire Line
	1400 4300 1600 4300
Wire Wire Line
	1600 4300 1600 4250
Wire Wire Line
	1600 4300 1900 4300
Wire Wire Line
	1900 4300 1900 4250
Connection ~ 1600 4300
Wire Wire Line
	1900 4300 1900 4350
Connection ~ 1900 4300
Wire Wire Line
	1600 3950 1600 3650
Connection ~ 1600 3650
Wire Wire Line
	1600 3650 1500 3650
Wire Wire Line
	1900 3950 1900 3750
Connection ~ 1900 3750
Wire Wire Line
	1900 3750 2350 3750
$EndSCHEMATC
